<?xml version="1.0" encoding="utf-8"?>
<COLLADA xmlns="http://www.collada.org/2005/11/COLLADASchema" version="1.4.1">
  <asset>
    <contributor>
      <author>Blender User</author>
      <authoring_tool>Blender 2.76.0 commit date:2015-10-11, commit time:06:55, hash:48f7dd6</authoring_tool>
    </contributor>
    <created>2017-03-08T16:35:04</created>
    <modified>2017-03-08T16:35:04</modified>
    <unit name="meter" meter="1"/>
    <up_axis>Z_UP</up_axis>
  </asset>
  <library_images/>
  <library_effects>
    <effect id="Material-effect">
      <profile_COMMON>
        <technique sid="common">
          <phong>
            <emission>
              <color sid="emission">0 0 0 1</color>
            </emission>
            <ambient>
              <color sid="ambient">0 0 0 1</color>
            </ambient>
            <diffuse>
              <color sid="diffuse">0.64 0.64 0.64 1</color>
            </diffuse>
            <specular>
              <color sid="specular">0.5 0.5 0.5 1</color>
            </specular>
            <shininess>
              <float sid="shininess">50</float>
            </shininess>
            <index_of_refraction>
              <float sid="index_of_refraction">1</float>
            </index_of_refraction>
          </phong>
        </technique>
      </profile_COMMON>
    </effect>
  </library_effects>
  <library_materials>
    <material id="Material-material" name="Material">
      <instance_effect url="#Material-effect"/>
    </material>
  </library_materials>
  <library_geometries>
    <geometry id="Cube-mesh" name="Cube">
      <mesh>
        <source id="Cube-mesh-positions">
          <float_array id="Cube-mesh-positions-array" count="27">0.4999998 0.4999997 -0.301284 0.4999998 -0.4999998 -0.301284 -0.4999998 -0.4999997 -0.301284 -0.4999996 0.5 -0.301284 0.5 0.4999995 0.301284 0.4999994 -0.5000001 0.301284 -0.5 -0.4999996 0.301284 -0.4999997 0.4999998 0.301284 0 0 0.698716</float_array>
          <technique_common>
            <accessor source="#Cube-mesh-positions-array" count="9" stride="3">
              <param name="X" type="float"/>
              <param name="Y" type="float"/>
              <param name="Z" type="float"/>
            </accessor>
          </technique_common>
        </source>
        <source id="Cube-mesh-normals">
          <float_array id="Cube-mesh-normals-array" count="42">0 0 -1 1 -5.93507e-7 5.44047e-7 -4.76837e-7 -1 1.97835e-7 -1 2.96753e-7 -1.97835e-7 2.08616e-7 1 1.48377e-7 -2.79961e-7 -0.6222406 0.7828261 0.6222407 -3.49951e-7 0.782826 -0.6222406 1.3998e-7 0.7828261 1.8664e-7 0.6222406 0.7828261 0 0 -1 1 0 -3.95671e-7 0 -1 -5.93507e-7 -1 1.97836e-7 -2.47294e-7 2.68221e-7 1 3.95671e-7</float_array>
          <technique_common>
            <accessor source="#Cube-mesh-normals-array" count="14" stride="3">
              <param name="X" type="float"/>
              <param name="Y" type="float"/>
              <param name="Z" type="float"/>
            </accessor>
          </technique_common>
        </source>
        <vertices id="Cube-mesh-vertices">
          <input semantic="POSITION" source="#Cube-mesh-positions"/>
        </vertices>
        <polylist material="Material-material" count="14">
          <input semantic="VERTEX" source="#Cube-mesh-vertices" offset="0"/>
          <input semantic="NORMAL" source="#Cube-mesh-normals" offset="1"/>
          <vcount>3 3 3 3 3 3 3 3 3 3 3 3 3 3 </vcount>
          <p>0 0 1 0 2 0 4 1 5 1 1 1 5 2 6 2 2 2 2 3 6 3 7 3 0 4 3 4 7 4 6 5 5 5 8 5 5 6 4 6 8 6 7 7 6 7 8 7 4 8 7 8 8 8 3 9 0 9 2 9 0 10 4 10 1 10 1 11 5 11 2 11 3 12 2 12 7 12 4 13 0 13 7 13</p>
        </polylist>
      </mesh>
    </geometry>
  </library_geometries>
  <library_controllers/>
  <library_visual_scenes>
    <visual_scene id="Scene" name="Scene">
      <node id="Cube" name="Cube" type="NODE">
        <matrix sid="transform">1 0 0 0 0 1 0 0 0 0 1 0 0 0 0 1</matrix>
        <instance_geometry url="#Cube-mesh" name="Cube">
          <bind_material>
            <technique_common>
              <instance_material symbol="Material-material" target="#Material-material"/>
            </technique_common>
          </bind_material>
        </instance_geometry>
      </node>
    </visual_scene>
  </library_visual_scenes>
  <scene>
    <instance_visual_scene url="#Scene"/>
  </scene>
</COLLADA>