<?xml version="1.0" encoding="utf-8"?>
<COLLADA xmlns="http://www.collada.org/2005/11/COLLADASchema" version="1.4.1">
  <asset>
    <contributor>
      <author>Blender User</author>
      <authoring_tool>Blender 2.79.0</authoring_tool>
    </contributor>
    <created>2018-07-21T13:13:48</created>
    <modified>2018-07-21T13:13:48</modified>
    <unit name="meter" meter="1"/>
    <up_axis>Z_UP</up_axis>
  </asset>
  <library_lights>
    <light id="Spot-light" name="Spot">
      <technique_common>
        <spot>
          <color sid="color">1 1 1</color>
          <constant_attenuation>1</constant_attenuation>
          <linear_attenuation>0</linear_attenuation>
          <quadratic_attenuation>0.001599967</quadratic_attenuation>
          <falloff_angle sid="fall_off_angle">45</falloff_angle>
          <falloff_exponent sid="fall_off_exponent">0.15</falloff_exponent>
        </spot>
      </technique_common>
      <extra>
        <technique profile="blender">
          <type sid="type" type="int">2</type>
          <flag sid="flag" type="int">0</flag>
          <mode sid="mode" type="int">1</mode>
          <gamma sid="blender_gamma" type="float">1</gamma>
          <red sid="red" type="float">1</red>
          <green sid="green" type="float">1</green>
          <blue sid="blue" type="float">1</blue>
          <shadow_r sid="blender_shadow_r" type="float">0</shadow_r>
          <shadow_g sid="blender_shadow_g" type="float">0</shadow_g>
          <shadow_b sid="blender_shadow_b" type="float">0</shadow_b>
          <energy sid="blender_energy" type="float">1</energy>
          <dist sid="blender_dist" type="float">25</dist>
          <spotsize sid="spotsize" type="float">45</spotsize>
          <spotblend sid="spotblend" type="float">0.15</spotblend>
          <halo_intensity sid="blnder_halo_intensity" type="float">1</halo_intensity>
          <att1 sid="att1" type="float">0</att1>
          <att2 sid="att2" type="float">1</att2>
          <falloff_type sid="falloff_type" type="int">2</falloff_type>
          <clipsta sid="clipsta" type="float">0.5</clipsta>
          <clipend sid="clipend" type="float">40</clipend>
          <bias sid="bias" type="float">1</bias>
          <soft sid="soft" type="float">3</soft>
          <compressthresh sid="compressthresh" type="float">0.04999995</compressthresh>
          <bufsize sid="bufsize" type="int">512</bufsize>
          <samp sid="samp" type="int">3</samp>
          <buffers sid="buffers" type="int">1</buffers>
          <filtertype sid="filtertype" type="int">0</filtertype>
          <bufflag sid="bufflag" type="int">0</bufflag>
          <buftype sid="buftype" type="int">2</buftype>
          <ray_samp sid="ray_samp" type="int">1</ray_samp>
          <ray_sampy sid="ray_sampy" type="int">1</ray_sampy>
          <ray_sampz sid="ray_sampz" type="int">1</ray_sampz>
          <ray_samp_type sid="ray_samp_type" type="int">0</ray_samp_type>
          <area_shape sid="area_shape" type="int">0</area_shape>
          <area_size sid="area_size" type="float">0.1</area_size>
          <area_sizey sid="area_sizey" type="float">0.1</area_sizey>
          <area_sizez sid="area_sizez" type="float">0.1</area_sizez>
          <adapt_thresh sid="adapt_thresh" type="float">0.000999987</adapt_thresh>
          <ray_samp_method sid="ray_samp_method" type="int">1</ray_samp_method>
          <shadhalostep sid="shadhalostep" type="int">0</shadhalostep>
          <sun_effect_type sid="sun_effect_type" type="int">0</sun_effect_type>
          <skyblendtype sid="skyblendtype" type="int">1</skyblendtype>
          <horizon_brightness sid="horizon_brightness" type="float">1</horizon_brightness>
          <spread sid="spread" type="float">1</spread>
          <sun_brightness sid="sun_brightness" type="float">1</sun_brightness>
          <sun_size sid="sun_size" type="float">1</sun_size>
          <backscattered_light sid="backscattered_light" type="float">1</backscattered_light>
          <sun_intensity sid="sun_intensity" type="float">1</sun_intensity>
          <atm_turbidity sid="atm_turbidity" type="float">2</atm_turbidity>
          <atm_extinction_factor sid="atm_extinction_factor" type="float">1</atm_extinction_factor>
          <atm_distance_factor sid="atm_distance_factor" type="float">1</atm_distance_factor>
          <skyblendfac sid="skyblendfac" type="float">1</skyblendfac>
          <sky_exposure sid="sky_exposure" type="float">1</sky_exposure>
          <sky_colorspace sid="sky_colorspace" type="int">2</sky_colorspace>
        </technique>
      </extra>
    </light>
  </library_lights>
  <library_images/>
  <library_effects>
    <effect id="Material-effect">
      <profile_COMMON>
        <technique sid="common">
          <phong>
            <emission>
              <color sid="emission">0 0 0 1</color>
            </emission>
            <ambient>
              <color sid="ambient">0 0 0 1</color>
            </ambient>
            <diffuse>
              <color sid="diffuse">0.64 0.64 0.64 1</color>
            </diffuse>
            <specular>
              <color sid="specular">0.5 0.5 0.5 1</color>
            </specular>
            <shininess>
              <float sid="shininess">50</float>
            </shininess>
            <index_of_refraction>
              <float sid="index_of_refraction">1</float>
            </index_of_refraction>
          </phong>
        </technique>
      </profile_COMMON>
    </effect>
    <effect id="Glass-effect">
      <profile_COMMON>
        <technique sid="common">
          <phong>
            <emission>
              <color sid="emission">0 0 0 1</color>
            </emission>
            <ambient>
              <color sid="ambient">0 0 0 1</color>
            </ambient>
            <diffuse>
              <color sid="diffuse">0.0451282 0.0451282 0.0451282 1</color>
            </diffuse>
            <specular>
              <color sid="specular">0.5 0.5 0.5 1</color>
            </specular>
            <shininess>
              <float sid="shininess">50</float>
            </shininess>
            <transparent opaque="A_ONE">
              <color>1 1 1 0.2649572</color>
            </transparent>
            <index_of_refraction>
              <float sid="index_of_refraction">1</float>
            </index_of_refraction>
          </phong>
        </technique>
      </profile_COMMON>
    </effect>
  </library_effects>
  <library_materials>
    <material id="Material-material" name="Material">
      <instance_effect url="#Material-effect"/>
    </material>
    <material id="Glass-material" name="Glass">
      <instance_effect url="#Glass-effect"/>
    </material>
  </library_materials>
  <library_geometries>
    <geometry id="Cube-mesh" name="Cube">
      <mesh>
        <source id="Cube-mesh-positions">
          <float_array id="Cube-mesh-positions-array" count="480">0.1913417 0.4619398 0.472484 0.1913417 0.4619398 -0.472484 0.09754514 0.4903926 0.472484 0.09754514 0.4903926 -0.472484 0 0.5 0.472484 0 0.5 -0.472484 0.09110039 0.4579926 0.4965593 0.1786999 0.4314196 0.4965593 0.2777851 0.4157348 -0.472484 0.2777851 0.4157348 0.472484 0.3535534 0.3535534 -0.472484 0.3535534 0.3535534 0.472484 0.4157348 0.2777851 -0.472484 0.4157348 0.2777851 0.472484 0.4619398 0.1913417 -0.472484 0.4619398 0.1913417 0.472484 0.4903926 0.09754514 -0.472484 0.4903926 0.09754514 0.472484 0.5 0 -0.472484 0.5 0 0.472484 0.4903926 -0.09754508 -0.472484 0.4903926 -0.09754508 0.472484 0.4619398 -0.1913416 -0.472484 0.4619398 -0.1913416 0.472484 0.4157348 -0.2777851 -0.472484 0.4157348 -0.2777851 0.472484 0.3535534 -0.3535534 -0.472484 0.3535534 -0.3535534 0.472484 0.2777851 -0.4157348 -0.472484 0.2777851 -0.4157348 0.472484 0.1913416 -0.4619398 -0.472484 0.1913416 -0.4619398 0.472484 0.09754502 -0.4903926 -0.472484 0.09754502 -0.4903926 0.472484 -1.62921e-7 -0.5 -0.472484 -1.62921e-7 -0.5 0.472484 -0.09754532 -0.4903926 -0.472484 -0.09754532 -0.4903926 0.472484 -0.1913419 -0.4619396 -0.472484 -0.1913419 -0.4619396 0.472484 -0.2777854 -0.4157347 -0.472484 -0.2777854 -0.4157347 0.472484 -0.3535536 -0.3535532 -0.472484 -0.3535536 -0.3535532 0.472484 -0.415735 -0.2777848 -0.472484 -0.415735 -0.2777848 0.472484 -0.4619399 -0.1913413 -0.472484 -0.4619399 -0.1913413 0.472484 -0.4903927 -0.09754472 -0.472484 -0.4903927 -0.09754472 0.472484 -0.5 4.828e-7 -0.472484 -0.5 4.828e-7 0.472484 -0.4903925 0.09754568 -0.472484 -0.4903925 0.09754568 0.472484 -0.4619395 0.1913422 -0.472484 -0.4619395 0.1913422 0.472484 -0.4157345 0.2777856 -0.472484 -0.4157345 0.2777856 0.472484 -0.3535529 0.3535538 -0.472484 -0.3535529 0.3535538 0.472484 -0.2777845 0.4157352 -0.472484 -0.2777845 0.4157352 0.472484 -0.191341 0.4619401 -0.472484 -0.191341 0.4619401 0.472484 -0.09754437 0.4903928 -0.472484 -0.09754437 0.4903928 0.472484 0 0.4669652 0.4965593 0.259432 0.3882673 0.4965593 0.3301942 0.3301942 0.4965593 0.3882674 0.259432 0.4965593 0.4314196 0.1786998 0.4965593 0.4579926 0.09110039 0.4965593 0.4669652 0 0.4965593 0.4579926 -0.09110033 0.4965593 0.4314196 -0.1786997 0.4965593 0.3882674 -0.2594319 0.4965593 0.3301942 -0.3301942 0.4965593 0.259432 -0.3882673 0.4965593 0.1786997 -0.4314196 0.4965593 0.09110027 -0.4579926 0.4965593 -1.49143e-7 -0.4669651 0.4965593 -0.09110057 -0.4579926 0.4965593 -0.1787 -0.4314195 0.4965593 -0.2594322 -0.3882672 0.4965593 -0.3301945 -0.3301941 0.4965593 -0.3882675 -0.2594317 0.4965593 -0.4314197 -0.1786994 0.4965593 -0.4579927 -0.09109997 0.4965593 -0.4669652 4.60316e-7 0.4965593 -0.4579925 0.09110087 0.4965593 -0.4314194 0.1787003 0.4965593 -0.388267 0.2594324 0.4965593 -0.3301938 0.3301947 0.4965593 -0.2594314 0.3882677 0.4965593 -0.1786992 0.4314199 0.4965593 -0.09109967 0.4579927 0.4965593 0.06848204 0.3442825 0.527516 0.1343324 0.324307 0.527516 0 0.3510274 0.527516 0.1950204 0.2918686 0.527516 0.2482138 0.2482138 0.527516 0.2918686 0.1950204 0.527516 0.324307 0.1343324 0.527516 0.3442825 0.0684821 0.527516 0.3510274 0 0.527516 0.3442825 -0.06848192 0.527516 0.324307 -0.1343322 0.527516 0.2918686 -0.1950203 0.527516 0.2482138 -0.2482138 0.527516 0.1950203 -0.2918686 0.527516 0.1343323 -0.324307 0.527516 0.06848198 -0.3442825 0.527516 0 -0.3510273 0.527516 -0.06848216 -0.3442824 0.527516 -0.1343325 -0.3243069 0.527516 -0.1950205 -0.2918685 0.527516 -0.248214 -0.2482137 0.527516 -0.2918687 -0.1950201 0.527516 -0.3243071 -0.134332 0.527516 -0.3442825 -0.06848168 0.527516 -0.3510274 3.88112e-7 0.527516 -0.3442824 0.06848245 0.527516 -0.3243069 0.1343327 0.527516 -0.2918683 0.1950207 0.527516 -0.2482135 0.2482142 0.527516 -0.19502 0.2918689 0.527516 -0.1343318 0.3243073 0.527516 -0.0684815 0.3442826 0.527516 0.01370799 0.068915 0.08507907 0.0268892 0.06491649 0.08507907 0 0.07026511 0.08507907 0.0390371 0.05842334 0.08507907 0.04968482 0.04968494 0.08507907 0.05842322 0.03903722 0.08507907 0.06491637 0.02688938 0.08507907 0.06891483 0.01370811 0.08507907 0.07026499 1.46993e-7 0.08507907 0.06891489 -0.01370781 0.08507907 0.06491637 -0.02688908 0.08507907 0.05842322 -0.03903698 0.08507907 0.04968482 -0.0496847 0.08507907 0.0390371 -0.05842304 0.08507907 0.0268892 -0.06491625 0.08507907 0.01370799 -0.06891471 0.08507907 0 -0.07026481 0.08507907 -0.01370799 -0.06891471 0.08507907 -0.02688926 -0.06491619 0.08507907 -0.03903716 -0.05842304 0.08507907 -0.04968488 -0.04968464 0.08507907 -0.05842322 -0.03903692 0.08507907 -0.06491637 -0.02688902 0.08507907 -0.06891489 -0.01370781 0.08507907 -0.07026493 2.09536e-7 0.08507907 -0.06891483 0.01370823 0.08507907 -0.06491631 0.02688944 0.08507907 -0.0584231 0.03903734 0.08507907 -0.04968476 0.049685 0.08507907 -0.03903704 0.05842339 0.08507907 -0.02688914 0.06491655 0.08507907 -0.01370787 0.068915 0.08507907</float_array>
          <technique_common>
            <accessor source="#Cube-mesh-positions-array" count="160" stride="3">
              <param name="X" type="float"/>
              <param name="Y" type="float"/>
              <param name="Z" type="float"/>
            </accessor>
          </technique_common>
        </source>
        <source id="Cube-mesh-normals">
          <float_array id="Cube-mesh-normals-array" count="801">0.1643954 0.2003163 0.9658403 0.2785138 -0.5210632 0.8067982 0.2902846 0.9569404 0 0.09801727 0.9951848 0 0.2003171 -0.1643953 0.9658402 0.5210636 0.2785139 0.8067979 -0.2785136 0.5210638 0.806798 -0.1221571 0.2285392 0.9658403 0.4713968 0.8819212 0 0.2785151 0.5210633 0.8067976 -0.2479795 -0.07522344 0.9658404 0.6343933 0.7730104 0 0.5210626 -0.2785137 0.8067986 0.07522362 -0.2479792 0.9658404 0.7730106 0.6343932 0 -0.2785149 -0.5210627 0.8067981 0.2479801 0.0752235 0.9658403 0.8819214 0.4713967 0 -0.5210629 0.2785149 0.806798 -0.2479788 0.07522392 0.9658405 0.9569404 0.2902848 0 0.5879819 0.05791115 0.8067984 -0.0752232 -0.2479793 0.9658405 0.9951848 0.09801685 0 0.05791103 -0.5879817 0.8067986 0.2479798 -0.0752235 0.9658403 0.9951848 -0.09801685 0 -0.5879832 -0.05791074 0.8067975 0.02539986 0.2578899 0.9658404 0.9569404 -0.2902848 0 0.1715077 0.5653858 0.8067988 -0.1643953 0.2003163 0.9658403 0.8819213 -0.4713969 0 0.4567155 0.3748173 0.8067979 -0.2003158 -0.164395 0.9658406 0.7730102 -0.6343936 0 0.3748167 -0.456716 0.8067981 0.1643952 -0.2003162 0.9658404 0.6343935 -0.7730103 0 -0.4567156 -0.3748165 0.8067984 0.2003171 0.1643953 0.9658402 0.4713969 -0.8819212 0 -0.3748162 0.456716 0.8067983 -0.2578896 -0.02539986 0.9658405 0.2902842 -0.9569405 0 -0.05791062 0.5879819 0.8067984 -0.02539926 0.2578903 0.9658403 0.09801691 -0.9951848 0 0.5653872 -0.1715084 0.8067976 0.0253995 -0.25789 0.9658404 -0.09801751 -0.9951848 0 -0.1715079 -0.5653863 0.8067982 0.2578902 0.02539986 0.9658404 -0.2902852 -0.9569403 0 -0.5653855 0.1715084 0.8067987 -0.0752232 0.2479795 0.9658404 -0.4713971 -0.8819211 0 0.5653869 0.171508 0.8067978 -0.2285385 0.1221569 0.9658405 -0.6343941 -0.77301 0 0.1715081 -0.5653858 0.8067986 -0.1221575 -0.2285388 0.9658403 -0.7730108 -0.6343929 0 -0.5653871 -0.1715078 0.8067976 0.2285394 -0.1221566 0.9658404 -0.8819217 -0.4713962 0 -0.1715067 0.5653861 0.8067988 0.1221563 0.2285391 0.9658405 -0.9569408 -0.2902834 0 0.3748161 0.4567156 0.8067986 -0.2285391 -0.1221563 0.9658405 -0.9951849 -0.09801614 0 0.4567163 -0.3748168 0.8067977 0.1221569 -0.2285392 0.9658404 -0.9951847 0.0980181 0 -0.3748164 -0.4567157 0.8067982 0.2285393 0.1221565 0.9658403 -0.9569401 0.2902859 0 -0.4567137 0.3748182 0.8067986 -0.2578896 0.02540004 0.9658405 -0.8819208 0.4713976 0 0.05791109 0.5879824 0.8067981 -0.0253995 -0.2578896 0.9658405 -0.7730095 0.6343944 0 0.5879825 -0.05791115 0.8067979 0.2578902 -0.02539968 0.9658404 -0.6343926 0.773011 0 -0.05791109 -0.5879825 0.8067979 -0.6535869 0.5363857 0.5339612 -0.4713957 0.8819218 0 0.07522368 0.2479794 0.9658405 0 0 -1 -0.2902831 0.9569409 0 -0.5210632 -0.2785137 0.8067983 -0.1643945 -0.200316 0.9658406 -0.0980165 0.9951848 0 -0.5879819 0.05791234 0.8067984 -0.200315 0.1643956 0.9658405 0 0 1 0.8414377 -0.08287489 0.533961 -0.7456726 0.3985696 0.5339613 0.8414381 0.08287006 0.5339612 -0.8091017 0.2454385 0.5339612 0.809102 0.2454376 0.533961 -0.8414378 0.08287411 0.5339611 0.7456724 0.39857 0.5339612 -0.8414378 -0.08287411 0.533961 0.6535879 0.5363845 0.5339612 -0.8091017 -0.2454386 0.5339611 0.5363855 0.6535872 0.5339611 -0.7456728 -0.3985697 0.5339611 0.3985704 0.7456723 0.5339612 0.398568 -0.7456737 0.533961 -0.6535875 -0.5363853 0.5339611 0.2454398 0.8091012 0.5339614 0.2454372 -0.8091022 0.5339609 -0.5363858 -0.6535871 0.5339609 0.08287411 0.8414378 0.5339612 0.08287143 -0.8414379 0.5339611 -0.3985702 -0.7456725 0.5339611 -0.08287411 0.8414377 0.5339612 0.5363849 -0.6535879 0.5339609 -0.08287453 -0.8414378 0.5339609 -0.2454373 0.8091018 0.5339615 0.6535872 -0.5363851 0.5339615 -0.2454384 -0.8091018 0.5339609 -0.3985699 0.7456726 0.5339612 0.7456718 -0.3985715 0.5339609 -0.5363853 0.6535872 0.5339612 0.8091012 -0.2454409 0.5339608 0.1643961 0.2003162 0.9658402 0.2785137 -0.5210627 0.8067986 0.2003158 -0.1643953 0.9658405 0.5210636 0.2785138 0.806798 -0.2785131 0.5210638 0.8067981 -0.1221563 0.2285395 0.9658404 0.2785139 0.5210623 0.8067986 -0.2479797 -0.07522344 0.9658404 0.5210633 -0.2785142 0.8067981 0.07522362 -0.2479792 0.9658404 0.7730102 0.6343936 0 -0.2785141 -0.5210635 0.8067979 0.247978 0.07522398 0.9658407 -0.5210633 0.2785145 0.8067979 -0.2479797 0.07522416 0.9658403 0.5879822 0.05791133 0.8067983 -0.07522428 -0.2479792 0.9658405 0.9951847 0.09801751 0 0.0579105 -0.5879817 0.8067986 0.2479788 -0.07522392 0.9658405 -0.5879824 -0.05791068 0.8067981 0.02540022 0.25789 0.9658404 0.1715084 0.5653865 0.8067979 -0.1643946 0.2003163 0.9658405 0.8819215 -0.4713963 0 0.4567155 0.3748169 0.8067982 -0.200317 -0.1643949 0.9658403 0.7730106 -0.6343932 0 0.3748167 -0.4567163 0.8067979 0.164395 -0.2003159 0.9658406 0.6343932 -0.7730106 0 -0.4567158 -0.3748162 0.8067983 0.2003151 0.1643955 0.9658406 0.4713967 -0.8819214 0 -0.3748176 0.4567161 0.8067975 -0.2578898 -0.02539968 0.9658405 0.2902843 -0.9569405 0 -0.05791074 0.5879822 0.8067981 -0.02539974 0.25789 0.9658405 0.09801691 -0.9951848 0 0.5653857 -0.1715075 0.8067988 0.02539962 -0.2578897 0.9658405 -0.09801751 -0.9951847 0 -0.1715089 -0.5653867 0.8067979 0.2578898 0.0254001 0.9658404 -0.2902852 -0.9569402 0 -0.5653867 0.1715088 0.8067978 -0.07522374 0.2479797 0.9658403 -0.4713971 -0.8819212 0 0.565386 0.1715086 0.8067983 -0.2285392 0.1221569 0.9658403 -0.6343934 -0.7730105 0 0.1715076 -0.565386 0.8067985 -0.1221558 -0.228539 0.9658405 -0.7730111 -0.6343926 0 -0.5653869 -0.1715074 0.806798 0.2285385 -0.1221565 0.9658406 -0.8819218 -0.4713957 0 -0.1715074 0.5653865 0.8067982 0.1221577 0.2285392 0.9658403 -0.9569407 -0.290284 0 0.3748173 0.4567161 0.8067977 -0.2285392 -0.1221564 0.9658405 -0.9951848 -0.09801679 0 0.4567158 -0.3748172 0.8067979 0.1221566 -0.2285388 0.9658405 -0.3748175 -0.4567156 0.8067979 0.2285395 0.1221565 0.9658403 -0.456716 0.3748174 0.8067977 -0.2578905 0.02540022 0.9658403 0.05791115 0.5879829 0.8067977 -0.0253998 -0.2578897 0.9658405 0.5879821 -0.05791133 0.8067983 0.2578898 -0.02539986 0.9658405 -0.634392 0.7730116 0 -0.05791205 -0.5879825 0.8067979 -0.6535868 0.5363862 0.533961 -0.4713954 0.881922 0 0.07522302 0.2479794 0.9658404 0 0 -1 1.98756e-6 0 -1 3.97512e-6 0 -1 -1.36853e-6 0 -1 9.93771e-7 0 -1 -1.98757e-6 0 -1 -3.97511e-6 0 -1 -3.97511e-6 0 -1 3.97512e-6 0 -1 -1.34223e-6 0 -1 9.93775e-7 0 -1 -5.11542e-7 0 -1 1.02308e-6 0 -1 3.88857e-7 0 -1 0 0 -1 -0.5210627 -0.2785138 0.8067985 -0.164396 -0.2003161 0.9658403 -0.587983 0.05791151 0.8067976 -0.2003171 0.1643955 0.9658402 -2.12391e-6 0 1 3.14511e-6 0 1 3.14506e-6 0 1 4.66748e-7 0 1 2.16554e-6 0 1 6.29012e-6 0 1 -2.27702e-7 0 1 -1.88635e-7 0 1 0.8414378 -0.08287215 0.5339612 -0.7456724 0.3985703 0.5339611 0.8414378 0.0828737 0.5339611 -0.8091017 0.2454389 0.533961 0.8091015 0.2454388 0.5339612 -0.8414379 0.08287221 0.5339612 0.7456729 0.3985694 0.5339611 -0.8414376 -0.08287626 0.5339611 0.6535876 0.5363847 0.5339613 -0.8091025 -0.2454369 0.5339605 0.5363858 0.6535871 0.5339609 -0.7456718 -0.398571 0.5339615 0.3985694 0.7456727 0.5339615 0.3985691 -0.7456731 0.533961 -0.6535861 -0.5363878 0.5339603 0.2454388 0.8091015 0.5339612 0.2454382 -0.8091016 0.5339613 -0.5363844 -0.6535878 0.5339616 0.08287417 0.8414377 0.5339611 0.08287352 -0.8414379 0.5339611 -0.3985699 -0.7456725 0.5339613 -0.08287549 0.8414377 0.5339611 0.5363854 -0.6535878 0.5339605 -0.08287215 -0.8414379 0.5339611 -0.245438 0.8091018 0.5339612 0.6535865 -0.5363864 0.533961 -0.2454386 -0.8091018 0.5339608 -0.3985691 0.7456731 0.533961 0.7456731 -0.3985686 0.5339614 -0.5363864 0.6535861 0.5339617 0.8091014 -0.2454397 0.5339611</float_array>
          <technique_common>
            <accessor source="#Cube-mesh-normals-array" count="267" stride="3">
              <param name="X" type="float"/>
              <param name="Y" type="float"/>
              <param name="Z" type="float"/>
            </accessor>
          </technique_common>
        </source>
        <vertices id="Cube-mesh-vertices">
          <input semantic="POSITION" source="#Cube-mesh-positions"/>
        </vertices>
        <triangles material="Material-material" count="316">
          <input semantic="VERTEX" source="#Cube-mesh-vertices" offset="0"/>
          <input semantic="NORMAL" source="#Cube-mesh-normals" offset="1"/>
          <p>67 0 100 0 68 0 29 1 78 1 31 1 2 2 1 2 3 2 4 3 3 3 5 3 75 4 108 4 76 4 13 5 70 5 15 5 61 6 94 6 63 6 94 7 125 7 126 7 0 8 8 8 1 8 9 9 7 9 67 9 87 10 118 10 119 10 9 11 10 11 8 11 23 12 75 12 25 12 79 13 110 13 111 13 11 14 12 14 10 14 39 15 83 15 41 15 70 16 103 16 71 16 13 17 14 17 12 17 57 18 90 18 91 18 90 19 121 19 122 19 15 20 16 20 14 20 17 21 72 21 19 21 82 22 113 22 114 22 17 23 18 23 16 23 33 24 80 24 35 24 73 25 106 25 74 25 19 26 20 26 18 26 51 27 87 27 88 27 6 28 98 28 96 28 21 29 22 29 20 29 0 30 6 30 7 30 92 31 125 31 93 31 23 32 24 32 22 32 11 33 69 33 13 33 85 34 116 34 117 34 25 35 26 35 24 35 27 36 77 36 29 36 76 37 109 37 77 37 27 38 28 38 26 38 45 39 84 39 85 39 68 40 101 40 69 40 29 41 30 41 28 41 59 42 93 42 61 42 88 43 119 43 120 43 31 44 32 44 30 44 65 45 66 45 4 45 66 46 127 46 98 46 33 47 34 47 32 47 21 48 74 48 23 48 79 49 112 49 80 49 35 50 36 50 34 50 37 51 82 51 39 51 71 52 104 52 72 52 37 53 38 53 36 53 55 54 89 54 90 54 95 55 126 55 127 55 39 56 40 56 38 56 15 57 71 57 17 57 91 58 122 58 123 58 41 59 42 59 40 59 31 60 79 60 33 60 82 61 115 61 83 61 43 62 44 62 42 62 49 63 86 63 87 63 74 64 107 64 75 64 45 65 46 65 44 65 65 66 94 66 95 66 7 67 99 67 67 67 47 68 48 68 46 68 11 69 67 69 68 69 86 70 117 70 118 70 49 71 50 71 48 71 25 72 76 72 27 72 77 73 110 73 78 73 51 74 52 74 50 74 43 75 83 75 84 75 70 76 101 76 102 76 53 77 54 77 52 77 59 78 91 78 92 78 89 79 120 79 121 79 55 80 56 80 54 80 2 81 66 81 6 81 80 82 113 82 81 82 57 83 58 83 56 83 19 84 73 84 21 84 72 85 105 85 73 85 59 86 60 86 58 86 35 87 81 87 37 87 107 88 140 88 108 88 61 89 62 89 60 89 6 90 97 90 7 90 16 91 32 91 48 91 63 92 64 92 62 92 45 93 86 93 47 93 83 94 116 94 84 94 65 95 5 95 64 95 53 96 88 96 89 96 92 97 123 97 124 97 131 98 155 98 147 98 120 99 153 99 121 99 106 100 139 100 107 100 120 101 151 101 152 101 105 102 138 102 106 102 118 103 151 103 119 103 104 104 137 104 105 104 118 105 149 105 150 105 103 106 136 106 104 106 117 107 148 107 149 107 102 108 135 108 103 108 115 109 148 109 116 109 101 110 134 110 102 110 114 111 147 111 115 111 126 112 157 112 158 112 100 113 133 113 101 113 114 114 145 114 146 114 126 115 159 115 127 115 99 116 132 116 100 116 112 117 145 117 113 117 98 118 159 118 130 118 97 119 131 119 99 119 111 120 144 120 112 120 124 121 157 121 125 121 98 122 128 122 96 122 111 123 142 123 143 123 124 124 155 124 156 124 96 125 129 125 97 125 109 126 142 126 110 126 122 127 155 127 123 127 108 128 141 128 109 128 122 129 153 129 154 129 67 130 99 130 100 130 29 131 77 131 78 131 2 2 0 2 1 2 4 3 2 3 3 3 75 132 107 132 108 132 13 133 69 133 70 133 61 134 93 134 94 134 94 135 93 135 125 135 0 8 9 8 8 8 9 136 0 136 7 136 87 137 86 137 118 137 9 11 11 11 10 11 23 138 74 138 75 138 79 139 78 139 110 139 11 140 13 140 12 140 39 141 82 141 83 141 70 142 102 142 103 142 13 17 15 17 14 17 57 143 55 143 90 143 90 144 89 144 121 144 15 20 17 20 16 20 17 145 71 145 72 145 82 146 81 146 113 146 17 147 19 147 18 147 33 148 79 148 80 148 73 149 105 149 106 149 19 26 21 26 20 26 51 150 49 150 87 150 6 151 66 151 98 151 21 29 23 29 22 29 0 152 2 152 6 152 92 153 124 153 125 153 23 154 25 154 24 154 11 155 68 155 69 155 85 156 84 156 116 156 25 157 27 157 26 157 27 158 76 158 77 158 76 159 108 159 109 159 27 160 29 160 28 160 45 161 43 161 84 161 68 162 100 162 101 162 29 163 31 163 30 163 59 164 92 164 93 164 88 165 87 165 119 165 31 166 33 166 32 166 65 167 95 167 66 167 66 168 95 168 127 168 33 169 35 169 34 169 21 170 73 170 74 170 79 171 111 171 112 171 35 172 37 172 36 172 37 173 81 173 82 173 71 174 103 174 104 174 37 175 39 175 38 175 55 176 53 176 89 176 95 177 94 177 126 177 39 178 41 178 40 178 15 179 70 179 71 179 91 180 90 180 122 180 41 181 43 181 42 181 31 182 78 182 79 182 82 183 114 183 115 183 43 184 45 184 44 184 49 185 47 185 86 185 74 186 106 186 107 186 45 187 47 187 46 187 65 188 63 188 94 188 7 189 97 189 99 189 47 190 49 190 48 190 11 191 9 191 67 191 86 192 85 192 117 192 49 193 51 193 50 193 25 194 75 194 76 194 77 195 109 195 110 195 51 74 53 74 52 74 43 196 41 196 83 196 70 197 69 197 101 197 53 77 55 77 54 77 59 198 57 198 91 198 89 199 88 199 120 199 55 80 57 80 56 80 2 200 4 200 66 200 80 201 112 201 113 201 57 83 59 83 58 83 19 202 72 202 73 202 72 203 104 203 105 203 59 204 61 204 60 204 35 205 80 205 81 205 107 206 139 206 140 206 61 207 63 207 62 207 6 208 96 208 97 208 64 209 5 209 3 209 3 210 1 210 8 210 8 211 10 211 12 211 12 209 14 209 8 209 14 209 16 209 8 209 16 209 18 209 20 209 20 209 22 209 16 209 22 209 24 209 16 209 24 212 26 212 32 212 26 209 28 209 32 209 28 213 30 213 32 213 32 209 34 209 36 209 36 214 38 214 40 214 40 209 42 209 44 209 44 215 46 215 48 215 48 216 50 216 52 216 52 217 54 217 56 217 56 209 58 209 64 209 58 218 60 218 64 218 60 219 62 219 64 219 64 220 3 220 8 220 32 209 36 209 48 209 36 209 40 209 48 209 40 221 44 221 48 221 48 222 52 222 64 222 52 209 56 209 64 209 64 209 8 209 16 209 16 209 24 209 32 209 64 223 16 223 48 223 63 92 65 92 64 92 45 224 85 224 86 224 83 225 115 225 116 225 65 95 4 95 5 95 53 226 51 226 88 226 92 227 91 227 123 227 131 98 129 98 128 98 128 98 130 98 131 98 130 98 159 98 131 98 159 98 158 98 155 98 158 228 157 228 155 228 157 229 156 229 155 229 155 98 154 98 153 98 153 98 152 98 155 98 152 98 151 98 155 98 151 98 150 98 149 98 149 230 148 230 147 230 147 98 146 98 143 98 146 231 145 231 143 231 145 98 144 98 143 98 143 98 142 98 141 98 141 98 140 98 143 98 140 232 139 232 143 232 139 98 138 98 135 98 138 98 137 98 135 98 137 98 136 98 135 98 135 233 134 233 133 233 133 98 132 98 135 98 132 98 131 98 135 98 151 98 149 98 155 98 149 98 147 98 155 98 131 98 159 98 155 98 147 234 143 234 139 234 139 235 135 235 147 235 135 98 131 98 147 98 120 236 152 236 153 236 106 237 138 237 139 237 120 238 119 238 151 238 105 239 137 239 138 239 118 240 150 240 151 240 104 241 136 241 137 241 118 242 117 242 149 242 103 243 135 243 136 243 117 244 116 244 148 244 102 245 134 245 135 245 115 246 147 246 148 246 101 247 133 247 134 247 114 248 146 248 147 248 126 249 125 249 157 249 100 250 132 250 133 250 114 251 113 251 145 251 126 252 158 252 159 252 99 253 131 253 132 253 112 254 144 254 145 254 98 255 127 255 159 255 97 256 129 256 131 256 111 257 143 257 144 257 124 258 156 258 157 258 98 259 130 259 128 259 111 260 110 260 142 260 124 261 123 261 155 261 96 262 128 262 129 262 109 263 141 263 142 263 122 264 154 264 155 264 108 265 140 265 141 265 122 266 121 266 153 266</p>
        </triangles>
      </mesh>
    </geometry>
    <geometry id="Cylinder-mesh" name="Cylinder">
      <mesh>
        <source id="Cylinder-mesh-positions">
          <float_array id="Cylinder-mesh-positions-array" count="192">0 1 -1 0 1 1 0.1950903 0.9807853 -1 0.1950903 0.9807853 1 0.3826835 0.9238795 -1 0.3826835 0.9238795 1 0.5555703 0.8314696 -1 0.5555703 0.8314696 1 0.7071068 0.7071068 -1 0.7071068 0.7071068 1 0.8314697 0.5555702 -1 0.8314697 0.5555702 1 0.9238795 0.3826834 -1 0.9238795 0.3826834 1 0.9807853 0.1950903 -1 0.9807853 0.1950903 1 1 0 -1 1 0 1 0.9807853 -0.1950902 -1 0.9807853 -0.1950902 1 0.9238796 -0.3826833 -1 0.9238796 -0.3826833 1 0.8314697 -0.5555702 -1 0.8314697 -0.5555702 1 0.7071068 -0.7071068 -1 0.7071068 -0.7071068 1 0.5555702 -0.8314697 -1 0.5555702 -0.8314697 1 0.3826833 -0.9238796 -1 0.3826833 -0.9238796 1 0.1950901 -0.9807853 -1 0.1950901 -0.9807853 1 -3.25841e-7 -1 -1 -3.25841e-7 -1 1 -0.1950907 -0.9807852 -1 -0.1950907 -0.9807852 1 -0.3826839 -0.9238793 -1 -0.3826839 -0.9238793 1 -0.5555707 -0.8314693 -1 -0.5555707 -0.8314693 1 -0.7071073 -0.7071064 -1 -0.7071073 -0.7071064 1 -0.83147 -0.5555697 -1 -0.83147 -0.5555697 1 -0.9238799 -0.3826827 -1 -0.9238799 -0.3826827 1 -0.9807854 -0.1950894 -1 -0.9807854 -0.1950894 1 -1 9.65599e-7 -1 -1 9.65599e-7 1 -0.9807851 0.1950913 -1 -0.9807851 0.1950913 1 -0.9238791 0.3826845 -1 -0.9238791 0.3826845 1 -0.8314689 0.5555713 -1 -0.8314689 0.5555713 1 -0.7071059 0.7071077 -1 -0.7071059 0.7071077 1 -0.5555691 0.8314704 -1 -0.5555691 0.8314704 1 -0.3826821 0.9238801 -1 -0.3826821 0.9238801 1 -0.1950888 0.9807856 -1 -0.1950888 0.9807856 1</float_array>
          <technique_common>
            <accessor source="#Cylinder-mesh-positions-array" count="64" stride="3">
              <param name="X" type="float"/>
              <param name="Y" type="float"/>
              <param name="Z" type="float"/>
            </accessor>
          </technique_common>
        </source>
        <source id="Cylinder-mesh-normals">
          <float_array id="Cylinder-mesh-normals-array" count="180">0.09801727 0.9951847 0 0.2902846 0.9569405 0 0.4713967 0.8819213 0 0.6343935 0.7730103 0 0.7730106 0.6343932 0 0.8819215 0.4713966 0 0.9569404 0.2902848 0 0.9951847 0.09801727 0 0.9951848 -0.09801667 0 0.9569404 -0.2902848 0 0.8819214 -0.4713968 0 0.7730103 -0.6343936 0 0.6343934 -0.7730104 0 0.4713968 -0.8819214 0 0.2902842 -0.9569405 0 0.09801691 -0.9951848 0 -0.09801757 -0.9951848 0 -0.2902852 -0.9569402 0 -0.4713971 -0.8819211 0 -0.6343939 -0.77301 0 -0.7730109 -0.6343929 0 -0.8819217 -0.4713961 0 -0.9569407 -0.2902834 0 -0.9951849 -0.09801602 0 -0.9951847 0.09801787 0 -0.95694 0.2902858 0 -0.8819208 0.4713979 0 -0.7730096 0.6343944 0 -0.6343926 0.7730111 0 -0.4713955 0.881922 0 0 0 1 -0.290283 0.9569408 0 -0.0980165 0.9951848 0 0 0 -1 0.2902847 0.9569404 0 0.6343932 0.7730106 0 0.7730103 0.6343936 0 0.9951847 -0.09801727 0 0.8819216 -0.4713962 0 0.7730106 -0.6343932 0 0.2902843 -0.9569405 0 -0.2902852 -0.9569402 0 -0.6343936 -0.7730103 0 -0.7730111 -0.6343926 0 -0.9569405 -0.2902839 0 -0.9951848 -0.09801661 0 -0.9951846 0.09801846 0 -0.881921 0.4713975 0 -0.6343923 0.7730113 0 0 0 1 -3.97511e-6 0 1 3.97512e-6 0 1 1.43703e-6 0 1 -7.77715e-7 0 1 -2.87796e-7 0 1 -0.2902831 0.9569409 0 -3.97511e-6 0 -1 3.97512e-6 0 -1 3.88857e-7 0 -1 0 0 -1</float_array>
          <technique_common>
            <accessor source="#Cylinder-mesh-normals-array" count="60" stride="3">
              <param name="X" type="float"/>
              <param name="Y" type="float"/>
              <param name="Z" type="float"/>
            </accessor>
          </technique_common>
        </source>
        <vertices id="Cylinder-mesh-vertices">
          <input semantic="POSITION" source="#Cylinder-mesh-positions"/>
        </vertices>
        <triangles material="Glass-material" count="124">
          <input semantic="VERTEX" source="#Cylinder-mesh-vertices" offset="0"/>
          <input semantic="NORMAL" source="#Cylinder-mesh-normals" offset="1"/>
          <p>1 0 2 0 0 0 3 1 4 1 2 1 5 2 6 2 4 2 7 3 8 3 6 3 9 4 10 4 8 4 11 5 12 5 10 5 13 6 14 6 12 6 15 7 16 7 14 7 17 8 18 8 16 8 19 9 20 9 18 9 21 10 22 10 20 10 23 11 24 11 22 11 25 12 26 12 24 12 27 13 28 13 26 13 29 14 30 14 28 14 31 15 32 15 30 15 33 16 34 16 32 16 35 17 36 17 34 17 37 18 38 18 36 18 39 19 40 19 38 19 41 20 42 20 40 20 43 21 44 21 42 21 45 22 46 22 44 22 47 23 48 23 46 23 49 24 50 24 48 24 51 25 52 25 50 25 53 26 54 26 52 26 55 27 56 27 54 27 57 28 58 28 56 28 59 29 60 29 58 29 53 30 37 30 21 30 61 31 62 31 60 31 63 32 0 32 62 32 14 33 30 33 46 33 1 0 3 0 2 0 3 34 5 34 4 34 5 2 7 2 6 2 7 35 9 35 8 35 9 36 11 36 10 36 11 5 13 5 12 5 13 6 15 6 14 6 15 7 17 7 16 7 17 37 19 37 18 37 19 9 21 9 20 9 21 38 23 38 22 38 23 39 25 39 24 39 25 12 27 12 26 12 27 13 29 13 28 13 29 40 31 40 30 40 31 15 33 15 32 15 33 16 35 16 34 16 35 41 37 41 36 41 37 18 39 18 38 18 39 42 41 42 40 42 41 43 43 43 42 43 43 21 45 21 44 21 45 44 47 44 46 44 47 45 49 45 48 45 49 46 51 46 50 46 51 25 53 25 52 25 53 47 55 47 54 47 55 27 57 27 56 27 57 48 59 48 58 48 59 29 61 29 60 29 5 49 3 49 1 49 1 49 63 49 5 49 63 49 61 49 5 49 61 49 59 49 57 49 57 49 55 49 53 49 53 50 51 50 49 50 49 49 47 49 53 49 47 49 45 49 53 49 45 49 43 49 37 49 43 49 41 49 37 49 41 49 39 49 37 49 37 49 35 49 33 49 33 49 31 49 29 49 29 49 27 49 25 49 25 49 23 49 21 49 21 51 19 51 17 51 17 49 15 49 21 49 15 49 13 49 21 49 13 49 11 49 9 49 9 49 7 49 5 49 61 49 57 49 5 49 57 49 53 49 5 49 37 49 33 49 21 49 33 49 29 49 21 49 29 49 25 49 21 49 13 52 9 52 21 52 9 53 5 53 21 53 53 54 45 54 37 54 5 49 53 49 21 49 61 55 63 55 62 55 63 32 1 32 0 32 62 33 0 33 2 33 2 33 4 33 6 33 6 33 8 33 10 33 10 33 12 33 6 33 12 33 14 33 6 33 14 33 16 33 18 33 18 33 20 33 14 33 20 33 22 33 14 33 22 33 24 33 30 33 24 33 26 33 30 33 26 33 28 33 30 33 30 33 32 33 34 33 34 33 36 33 38 33 38 33 40 33 42 33 42 33 44 33 46 33 46 56 48 56 50 56 50 57 52 57 54 57 54 33 56 33 62 33 56 33 58 33 62 33 58 33 60 33 62 33 62 33 2 33 6 33 30 33 34 33 46 33 34 33 38 33 46 33 38 33 42 33 46 33 46 58 50 58 62 58 50 33 54 33 62 33 62 33 6 33 14 33 14 33 22 33 30 33 62 59 14 59 46 59</p>
        </triangles>
      </mesh>
    </geometry>
  </library_geometries>
  <library_controllers/>
  <library_visual_scenes>
    <visual_scene id="Scene" name="Scene">
      <node id="Reflector" name="Reflector" type="NODE">
        <matrix sid="transform">1 0 0 0 0 1 0 0 0 0 1 0 0 0 0 1</matrix>
        <instance_geometry url="#Cube-mesh" name="Reflector">
          <bind_material>
            <technique_common>
              <instance_material symbol="Material-material" target="#Material-material"/>
            </technique_common>
          </bind_material>
        </instance_geometry>
      </node>
      <node id="Glass" name="Glass" type="NODE">
        <matrix sid="transform">0.3604427 0 0 0 0 0.3604427 0 0 0 0 0.01944426 0.4923202 0 0 0 1</matrix>
        <instance_geometry url="#Cylinder-mesh" name="Glass">
          <bind_material>
            <technique_common>
              <instance_material symbol="Glass-material" target="#Glass-material"/>
            </technique_common>
          </bind_material>
        </instance_geometry>
      </node>
      <node id="Spot" name="Spot" type="NODE">
        <matrix sid="transform">-1 -1.1746e-14 -3.25841e-7 0 -1.1746e-14 1 0 0 3.25841e-7 0 -1 0.06302059 0 0 0 1</matrix>
        <instance_light url="#Spot-light"/>
      </node>
    </visual_scene>
  </library_visual_scenes>
  <scene>
    <instance_visual_scene url="#Scene"/>
  </scene>
</COLLADA>