<?xml version="1.0" encoding="utf-8"?>
<COLLADA xmlns="http://www.collada.org/2005/11/COLLADASchema" version="1.4.1" xmlns:xsi="http://www.w3.org/2001/XMLSchema-instance">
  <asset>
    <contributor>
      <author>Blender User</author>
      <authoring_tool>Blender 2.80.75</authoring_tool>
    </contributor>
    <created>2019-09-14T10:15:31</created>
    <modified>2019-09-14T10:15:31</modified>
    <unit name="meter" meter="1"/>
    <up_axis>Z_UP</up_axis>
  </asset>
  <library_effects>
    <effect id="Material-effect">
      <profile_COMMON>
        <technique sid="common">
          <lambert>
            <emission>
              <color sid="emission">0 0 0 1</color>
            </emission>
            <diffuse>
              <color sid="diffuse">0.8 0.8 0.8 1</color>
            </diffuse>
            <index_of_refraction>
              <float sid="ior">1.45</float>
            </index_of_refraction>
          </lambert>
        </technique>
      </profile_COMMON>
    </effect>
  </library_effects>
  <library_images/>
  <library_materials>
    <material id="Material-material" name="Material">
      <instance_effect url="#Material-effect"/>
    </material>
  </library_materials>
  <library_geometries>
    <geometry id="Cube-mesh" name="Cube">
      <mesh>
        <source id="Cube-mesh-positions">
          <float_array id="Cube-mesh-positions-array" count="768">-0.1672114 -0.5996443 0.5042064 -0.1672114 -0.9342407 0.5042064 -0.8341836 -0.5996443 0.5042064 -0.8341837 -0.9342406 0.5042064 -0.001424789 -0.03745782 -0.4885212 -0.001424789 -0.9998601 -0.4885212 -0.9999703 -0.03745776 -0.4885212 -0.9999703 -0.99986 -0.4885212 -0.001424729 -0.03745782 0.5042064 -0.001424789 -0.9998601 0.5042064 -0.9999703 -0.03745776 0.5042064 -0.9999703 -0.99986 0.5042064 -0.1672114 -0.5996443 -0.4189998 -0.1672114 -0.9342407 -0.4189998 -0.8341836 -0.5996443 -0.4189998 -0.8341837 -0.9342406 -0.4189998 0.8618156 0.6095957 0.00784254 -0.6124505 0.6095958 0.00784254 0.8618156 0.6003496 0.1046783 -0.6124504 0.6003494 0.1046783 0.8618156 0.5729665 0.1977928 -0.6124504 0.5729663 0.1977928 0.8618156 0.5284986 0.2836076 -0.6124504 0.5284987 0.2836076 0.8618156 0.4686553 0.3588248 -0.6124504 0.4686552 0.3588248 0.8618156 0.3957357 0.420554 -0.6124504 0.3957358 0.420554 0.8618156 0.3125424 0.4664229 -0.6124505 0.3125423 0.4664229 0.8618156 0.2222724 0.4946689 -0.6124504 0.2222725 0.4946689 0.8618156 0.1283947 0.5042064 -0.6124504 0.1283948 0.5042064 0.8618156 0.03451704 0.4946689 -0.6124504 0.0345171 0.4946689 0.8618156 -0.05575287 0.4664229 -0.6124504 -0.05575293 0.4664229 0.8618158 -0.1389463 0.420554 -0.6124504 -0.1389463 0.420554 0.8618156 -0.2118659 0.3588248 -0.6124504 -0.2118659 0.3588248 0.8618156 -0.2717095 0.2836075 -0.6124504 -0.2717095 0.2836075 0.8618156 -0.3161772 0.1977927 -0.6124504 -0.3161772 0.1977927 0.8618156 -0.3435603 0.1046782 -0.6124504 -0.3435603 0.1046782 0.8618158 -0.3528065 0.007842361 -0.6124504 -0.3528065 0.007842421 0.8618158 -0.3435602 -0.08899337 -0.6124504 -0.3435603 -0.08899337 0.8618156 -0.3161771 -0.1821078 -0.6124504 -0.316177 -0.1821078 0.8618156 -0.2717093 -0.2679226 -0.6124504 -0.2717093 -0.2679226 0.8618156 -0.2118657 -0.3431398 -0.6124504 -0.2118657 -0.3431398 0.8618156 -0.1389461 -0.404869 -0.6124504 -0.138946 -0.404869 0.8618156 -0.05575269 -0.4507379 -0.6124504 -0.05575263 -0.4507379 0.8618156 0.0345174 -0.4789838 -0.6124504 0.0345174 -0.4789838 0.8618156 0.1283951 -0.4885212 -0.6124505 0.1283952 -0.4885212 0.8618156 0.2222729 -0.4789836 -0.6124504 0.2222729 -0.4789836 0.8618156 0.3125429 -0.4507375 -0.6124505 0.3125429 -0.4507375 0.8618156 0.3957363 -0.4048684 -0.6124504 0.3957362 -0.4048684 0.8618156 0.4686557 -0.3431391 -0.6124504 0.4686557 -0.3431391 0.8618156 0.5284991 -0.2679218 -0.6124504 0.528499 -0.2679218 0.8618156 0.5729668 -0.1821069 -0.6124505 0.5729668 -0.1821069 0.8618156 0.6003497 -0.08899241 -0.6124504 0.6003497 -0.08899241 0.05420511 -0.9982433 -0.3982087 0.05420511 -0.2109483 -0.3982087 0.8710669 -0.9982434 -0.3982087 0.871067 -0.2109484 -0.3982087 0.05420511 -0.9982433 0.4138939 0.05420517 -0.2109483 0.4138939 0.8710669 -0.9982434 0.4138939 0.871067 -0.2109484 0.4138939 0.9999998 -0.0841152 0.04671955 0.8786252 -0.0841152 0.04671967 0.9999998 -0.09944725 0.12959 0.8786252 -0.09944725 0.12959 0.9999998 -0.1301581 0.2077826 0.8786252 -0.1301581 0.2077826 0.9999998 -0.1750676 0.2782925 0.8786252 -0.1750676 0.2782925 0.9999998 -0.2324495 0.3384102 0.8786252 -0.2324497 0.3384102 0.9999998 -0.3000993 0.3858253 0.8786252 -0.3000993 0.3858253 0.9999998 -0.3754166 0.4187156 0.8786252 -0.3754167 0.4187156 0.9999998 -0.4555075 0.4358174 0.8786252 -0.4555075 0.4358174 0.9999998 -0.5372938 0.4364732 0.8786252 -0.5372938 0.4364732 0.9999998 -0.6176326 0.4206579 0.8786252 -0.6176326 0.4206579 0.9999998 -0.6934365 0.3889793 0.8786252 -0.6934366 0.3889793 0.9999998 -0.7617926 0.3426548 0.8786252 -0.7617927 0.3426548 0.9999998 -0.8200739 0.2834646 0.8786252 -0.8200739 0.2834646 0.9999998 -0.8660407 0.2136833 0.8786252 -0.8660407 0.2136833 0.9999998 -0.8979262 0.1359925 0.8786252 -0.8979263 0.1359925 0.9999998 -0.9145054 0.05337804 0.8786252 -0.9145056 0.0533781 0.9999998 -0.9151413 -0.03098529 0.8786252 -0.9151414 -0.03098529 0.9999998 -0.8998091 -0.1138556 0.8786252 -0.8998091 -0.1138556 0.9999998 -0.8690981 -0.1920482 0.8786252 -0.8690981 -0.1920482 0.9999998 -0.8241887 -0.2625581 0.8786252 -0.8241887 -0.2625582 0.9999998 -0.7668064 -0.3226758 0.8786252 -0.7668066 -0.3226758 0.9999998 -0.6991568 -0.3700909 0.8786252 -0.6991569 -0.3700909 0.9999998 -0.6238394 -0.4029812 0.8786252 -0.6238394 -0.4029812 0.9999998 -0.5437486 -0.4200828 0.8786252 -0.5437486 -0.4200828 0.9999998 -0.4619622 -0.4207385 0.8786252 -0.4619623 -0.4207385 0.9999998 -0.3816233 -0.4049232 0.8786252 -0.3816233 -0.4049232 0.9999998 -0.3058192 -0.3732445 0.8786252 -0.3058193 -0.3732445 0.9999998 -0.2374632 -0.3269199 0.8786252 -0.2374632 -0.3269199 0.9999998 -0.179182 -0.2677296 0.8786252 -0.1791822 -0.2677296 0.9999998 -0.1332156 -0.1979482 0.8786252 -0.1332156 -0.1979482 0.9999998 -0.1013298 -0.1202575 0.8786252 -0.1013301 -0.1202576 0.9999998 -0.08475065 -0.03764301 0.8786252 -0.08475089 -0.03764301 0.9999998 -0.01490181 0.05319142 0.9999998 -0.03278791 0.1498657 0.9999998 -0.06861436 0.2410831 0.9999998 -0.1210046 0.3233382 0.9999998 -0.1879448 0.3934698 0.9999998 -0.2668632 0.4487829 0.9999998 -0.3547264 0.4871519 0.9999998 -0.4481581 0.5071023 0.9999998 -0.5435678 0.5078673 0.9999998 -0.6372889 0.4894177 0.9999998 -0.7257198 0.4524623 0.9999998 -0.8054622 0.3984214 0.9999998 -0.8734514 0.3293717 0.9999998 -0.9270749 0.2479667 0.9999998 -0.964272 0.1573348 0.9999998 -0.983613 0.06095898 0.9999998 -0.9843546 -0.0374571 0.9999998 -0.9664683 -0.1341314 0.9999998 -0.9306418 -0.2253488 0.9999998 -0.8782516 -0.3076038 0.9999998 -0.8113112 -0.3777354 0.9999998 -0.7323929 -0.4330486 0.9999998 -0.6445297 -0.4714175 0.9999998 -0.5510978 -0.4913677 0.9999998 -0.455688 -0.4921327 0.9999998 -0.3619669 -0.473683 0.9999998 -0.2735359 -0.4367275 0.9999998 -0.1937937 -0.3826864 0.9999998 -0.1258043 -0.3136366 0.9999998 -0.07218104 -0.2322316 0.9999998 -0.03498417 -0.1415997 0.9999998 -0.01564317 -0.04522377 0.8786252 -0.03278791 0.1498657 0.8786252 -0.01490181 0.05319142 0.8786252 -0.06861436 0.2410831 0.8786252 -0.1210046 0.3233382 0.8786252 -0.187945 0.3934697 0.8786252 -0.2668632 0.4487829 0.8786252 -0.3547265 0.4871519 0.8786252 -0.4481581 0.5071023 0.8786252 -0.5435678 0.5078673 0.8786252 -0.6372889 0.4894177 0.8786252 -0.7257198 0.4524623 0.8786252 -0.8054622 0.3984214 0.8786252 -0.8734514 0.3293717 0.8786252 -0.927075 0.2479667 0.8786252 -0.964272 0.1573348 0.8786252 -0.983613 0.06095898 0.8786252 -0.9843546 -0.0374571 0.8786252 -0.9664684 -0.1341314 0.8786252 -0.9306418 -0.2253488 0.8786252 -0.8782516 -0.3076038 0.8786252 -0.8113113 -0.3777354 0.8786252 -0.732393 -0.4330486 0.8786252 -0.6445297 -0.4714175 0.8786252 -0.5510978 -0.4913677 0.8786252 -0.455688 -0.4921327 0.8786252 -0.3619669 -0.473683 0.8786252 -0.273536 -0.4367275 0.8786252 -0.1937937 -0.3826864 0.8786252 -0.1258046 -0.3136366 0.8786252 -0.07218104 -0.2322316 0.8786252 -0.03498429 -0.1415997 0.8786252 -0.01564359 -0.04522383 0.9999998 -0.4584777 0.08567726 0.9999998 -0.5398772 0.08652138 0.8786252 -0.5398772 0.08652144 0.8786252 -0.4584777 0.08567726 1.00003 -0.5416894 -0.07181888 1 -0.458631 -0.07250738 0.8786252 -0.4586312 -0.07250738 0.8786252 -0.5416894 -0.0717436 1 -0.4119561 -0.002582192 0.8786253 -0.4119561 -0.002582192 0.9999998 -0.4138973 0.01549392 0.8786252 -0.4138973 0.01549392 0.9999998 -0.5857859 0.01725488 0.8786252 -0.585786 0.01725482 0.9999998 -0.5871624 -9.81693e-4 0.8786252 -0.5871624 -9.81692e-4 -0.6434664 -0.3104489 -0.08994328 -0.6852625 0.6206067 -0.06581228 -0.6434663 -0.3104489 0.08994323 -0.6852625 0.6206067 0.06581223 -0.7992526 -0.3104489 0.1798865 -0.7992526 0.6206067 0.1316245 -0.955039 -0.3104489 0.08994323 -0.9132429 0.6206067 0.06581223 -0.9550389 -0.3104489 -0.08994328 -0.9132428 0.6206067 -0.06581228 -0.7992526 -0.3104489 -0.1798865 -0.7992526 0.6206067 -0.1316246 -0.6434663 0.6206066 0.08994323 -0.6434664 0.6206066 -0.08994328 -0.7992526 0.6206067 0.1798865 -0.955039 0.6206067 0.08994323 -0.9550389 0.6206067 -0.08994328 -0.7992526 0.6206067 -0.1798865 -0.6852625 -0.006412863 0.06581223 -0.6852625 -0.006412863 -0.06581228 -0.7992526 -0.006412863 0.1316245 -0.9132429 -0.006412863 0.06581223 -0.9132428 -0.006412863 -0.06581228 -0.7992526 -0.006412863 -0.1316246</float_array>
          <technique_common>
            <accessor source="#Cube-mesh-positions-array" count="256" stride="3">
              <param name="X" type="float"/>
              <param name="Y" type="float"/>
              <param name="Z" type="float"/>
            </accessor>
          </technique_common>
        </source>
        <source id="Cube-mesh-normals">
          <float_array id="Cube-mesh-normals-array" count="1221">0 1 0 -1 0 0 0 0 -1 0 -1 0 0 1 0 1 0 0 0 0 1 -2.68627e-7 0 1 0 0 1 0 0 1 1 -3.85914e-7 0 0 -1 0 -1 0 0 -1.19793e-7 0.9954726 0.09505003 0 0.9593753 0.2821332 0 0.8878757 0.4600834 0 0.7825431 0.6225965 0 0.646113 0.7632418 0 0.4828283 0.875715 0 0.2986276 0.9543698 0 0.1010745 0.9948789 0 -0.1010742 0.9948789 0 -0.2986274 0.9543698 0 -0.4828282 0.8757151 0 -0.6461132 0.7632417 0 -0.7825422 0.6225976 0 -0.8878762 0.4600826 0 -0.9593753 0.2821331 0 -0.9954725 0.09505081 0 -0.9954725 -0.09505087 0 -0.959375 -0.2821342 0 -0.887876 -0.4600828 0 -0.7825421 -0.6225978 0 -0.6461127 -0.7632422 0 -0.4828282 -0.8757151 0 -0.298626 -0.9543703 0 -0.1010736 -0.994879 0 0.1010754 -0.9948788 0 0.2986283 -0.9543696 0 0.482829 -0.8757147 0 0.6461153 -0.7632399 0 0.7825431 -0.6225964 0 0.8878769 -0.4600811 0 0.959376 -0.2821307 0 0.9954725 -0.09505081 1 0 0 0 0 -1 0 0 1 -1 0 0 0 -1 0 0 1 0 0 0.9833122 0.1819266 0 0.9307825 0.3655735 0 0.8434475 0.5372117 0 0.723374 0.6904564 -1.27391e-6 0.5739516 0.8188892 0 0.400196 0.9164296 0 0.2088211 0.9779539 0 0.008018672 0.9999679 0 -0.1931499 0.9811694 0 -0.3855862 0.9226719 0 -0.561004 0.8278132 0 -0.7125574 0.7016137 0 -0.8350992 0.5500993 8.61549e-7 -0.9251157 0.3796856 0 -0.9804518 0.1967595 0 -0.9999716 0.007534384 9.62907e-7 -0.9833118 -0.1819289 0 -0.9307824 -0.3655737 0 -0.8434468 -0.5372128 3.44289e-7 -0.7233735 -0.690457 5.9159e-7 -0.5739513 -0.8188896 0 -0.4001951 -0.9164301 0 -0.2088197 -0.9779542 0 -0.00801742 -0.9999679 0 0.1931504 -0.9811692 -6.56313e-7 0.3855872 -0.9226714 -2.59844e-7 0.5610051 -0.8278123 -1.38785e-6 0.7125573 -0.701614 0 0.8350995 -0.5500989 -9.36245e-7 0.9251165 -0.3796834 -3.28565e-6 0.9804518 -0.1967595 0 0.9999716 -0.007533073 1 -1.09456e-6 0 1 -1.09456e-6 0 1 0 0 1 0 -3.29777e-7 1 -1.91533e-6 0 1 1.91533e-6 0 1 -7.98055e-7 0 1 -2.18913e-6 0 1 0 1.81175e-7 1 1.09456e-6 0 1 0 0 1 1.27689e-6 0 1 1.75572e-6 0 1 -1.59612e-6 0 -1 1.59611e-6 0 -1 -1.27689e-6 0 -1 1.09456e-6 0 -1 1.09456e-6 1.72122e-7 -1 1.09456e-6 0 -1 2.18913e-6 0 -1 -1.59611e-6 0 -1 -6.38444e-7 0 -1 6.38444e-7 0 -1 1.27689e-6 -3.3951e-7 -1 -1.09456e-6 0 1.90519e-6 -0.9999716 0.007532179 1.91232e-6 -0.9804523 0.1967571 2.01012e-6 -0.9251155 0.3796859 1 0 -1.92443e-7 7.38979e-7 -0.712558 0.7016133 7.43391e-7 -0.5610059 0.8278119 -3.73583e-7 -0.3855864 0.9226719 0 -0.19315 0.9811693 -7.3537e-7 0.9999543 -0.009566009 0 0.2088199 0.9779542 0 0.400196 0.9164296 -3.71528e-7 0.5739526 0.8188886 -1.47724e-6 0.7233728 0.6904577 3.60175e-7 0.5595782 -0.8287777 0 0.9307824 0.365574 0 0.983312 0.1819276 -9.82583e-7 0.9999717 -0.00753653 -9.62001e-7 0.9804516 -0.1967605 0 0.9251171 -0.3796821 4.88572e-7 -0.573953 -0.8188883 -7.13081e-7 0.712557 -0.7016142 -1.07594e-6 0.5610027 -0.827814 0 0.3855872 -0.9226715 0 0.1931498 -0.9811693 0 -0.9999728 0.007381737 2.25276e-7 -0.2088215 -0.9779538 0 -0.4001952 -0.9164299 3.89742e-7 -0.5739522 -0.8188889 0 -0.7233738 -0.6904567 0 0.5610049 -0.8278126 -2.73366e-7 -0.9833125 -0.1819247 0 -0.01036953 -0.9999463 1 0 0 0 0.9999641 -0.008482694 6.20542e-4 0.008289158 0.9999655 3.6694e-6 -0.9999826 0.00591135 1 3.57814e-4 -8.82089e-5 -1 -2.09266e-6 0 0 -0.8317311 0.5551788 -1 0 1.35592e-6 6.33798e-7 -0.5726901 -0.8197719 0 0.5739505 0.81889 0 -0.8441056 -0.5361772 1 -5.23103e-7 0 0 -0.5621033 0.8270671 0 0.8335413 -0.5524573 0 0.5750399 0.8181255 1 0 0 -1 -5.24134e-7 0 3.35209e-4 0.8415304 0.5402098 1 -2.00173e-4 2.94838e-4 -1 0 0 0 -0.561005 0.8278124 0 -0.994283 -0.1067782 0 0.997164 -0.07525938 1 2.93462e-6 3.38303e-4 -1 -9.7904e-7 0 1 0 -3.31346e-7 0.5 0 0.8660255 -0.4999999 0 0.8660255 -1 0 -3.31346e-7 0.5 0 0.8660254 -0.5000001 0 -0.8660254 0.5000001 0 -0.8660254 0 -1 0 1.42608e-6 1 0 9.04343e-7 1 0 0 1 0 0 1 4.25823e-7 0 1 0 0 1 0 0.4999997 0 -0.8660256 -0.5000001 0 0.8660255 1 0 4.52838e-7 -0.5000002 0 -0.8660253 0 1 0 -1 1.24774e-7 0 0 0 -1 0 -1 0 0 1 0 1 0 0 2.68627e-7 0 1 0 0 1 0 -1 0 0 0.9954723 0.09505236 0 0.9593753 0.2821332 0 0.8878763 0.4600822 0 0.7825423 0.6225975 0 0.6461143 0.7632408 0 0.4828277 0.8757155 0 0.2986279 0.9543697 0 0.1010745 0.9948789 0 -0.1010742 0.9948789 0 -0.298627 0.9543699 0 -0.4828284 0.8757151 0 -0.6461136 0.7632412 0 -0.7825421 0.6225979 0 -0.8878763 0.4600822 0 -0.9593757 0.282132 0 -0.9954724 0.09505164 0 -0.9954724 -0.09505164 0 -0.9593751 -0.2821339 0 -0.8878759 -0.4600831 0 -0.7825419 -0.622598 0 -0.6461126 -0.7632421 0 -0.4828281 -0.8757152 0 -0.2986261 -0.9543703 0 -0.1010735 -0.9948791 0 0.1010754 -0.9948788 0 0.2986284 -0.9543696 0 0.4828301 -0.8757141 0 0.646114 -0.763241 0 0.7825439 -0.6225954 0 0.8878756 -0.4600837 -1 0 0 -1 0 1.21922e-6 -1 0 -1.23106e-6 -1 0 1.31967e-6 -1 0 -1.31967e-6 -1 0 0 -1 1.77361e-7 0 -1 0 2.5989e-6 -1 0 0 -1 1.43831e-7 -4.22041e-6 -1 0 1.2499e-5 -1 -5.04747e-7 -1.03443e-6 -1 -4.41038e-7 -5.87063e-7 -1 0 0 -1 0 0 -1 0 0 -1 0 0 -1 0 0 -1 0 1.03443e-6 -1 -5.20088e-7 0 -1 -5.61395e-7 4.22038e-6 -1 -4.41038e-7 -3.18598e-6 0 0.959376 -0.2821308 0 0.9954724 -0.09505075 1 0 0 1 0 0 1 0 0 1 2.25737e-7 2.63371e-7 1 3.03792e-7 4.04376e-7 1 0 2.59891e-6 1 0 -1.93117e-6 1 1.36842e-7 0 1 2.00746e-7 1.21922e-6 1 0 0 1 1.6954e-7 -1.2431e-6 1 0 0 1 0 0 1 0 0 1 -3.58102e-7 0 1 0 0 1 0 0 1 0 0 1 -1.8645e-7 0 0 0 1 -1 0 0 0 -1 0 0 1 0 0 0.9833122 0.1819266 0 0.9307826 0.3655731 0 0.8434475 0.5372118 -1.82764e-6 0.7233722 0.6904582 0 0.5739534 0.8188881 -3.77022e-7 0.4001955 0.9164298 0 0.208821 0.977954 0 -0.1931497 0.9811694 0 -0.3855854 0.9226723 0 -0.5610045 0.8278127 0 -0.7125571 0.7016141 8.28126e-7 -0.8350981 0.5501011 0 -0.9251161 0.3796845 0 -0.9804517 0.1967607 0 -0.9999716 0.007535636 0 -0.9833121 -0.1819267 9.39559e-7 -0.9307824 -0.3655737 0 -0.8434477 -0.5372113 0 -0.7233732 -0.6904574 0 -0.5739519 -0.818889 6.40258e-7 -0.4001957 -0.9164298 0 -0.2088191 -0.9779543 0 -0.00801742 -0.9999679 0 0.1931503 -0.9811692 0 0.3855869 -0.9226716 0 0.5610052 -0.8278123 0 0.7125583 -0.701613 -1.25944e-6 0.8350988 -0.5501002 0 0.925117 -0.3796824 -1.09285e-6 0.9804523 -0.1967571 -3.4049e-6 0.9999716 -0.007537305 1 1.59611e-6 0 1 1.27689e-6 0 1 0 -1.72122e-7 1 1.09456e-6 0 1 -2.18913e-6 0 1 2.18912e-6 0 1 7.98055e-7 0 1 6.38445e-7 0 1 0 3.39511e-7 1 -1.09456e-6 0 1 -2.18913e-6 0 -1 -2.18913e-6 0 -1 1.09457e-6 0 -1 5.47283e-7 0 -1 -5.13077e-7 0 -1 -1.27689e-6 0 -1 0 3.29775e-7 -1 -1.27689e-6 0 -1 6.38444e-7 0 -1 -1.59611e-7 0 -1 -9.57667e-7 0 -1 1.09456e-6 -1.81174e-7 -1 -5.47282e-7 0 -1 6.32794e-7 0 -1 1.27689e-6 0 -1 -3.19222e-6 0 -1 9.57672e-7 0 0 -0.9999716 0.007534742 2.28923e-6 -0.9804519 0.1967589 0 -0.9251165 0.3796834 1 5.20843e-7 -1.94483e-7 5.39985e-7 -0.7125585 0.7016127 0 -0.5610057 0.8278121 0 -0.3855867 0.9226717 0 -0.1931498 0.9811693 -1.47696e-6 0.9999544 -0.009565353 0 0.2088201 0.9779542 -4.32118e-7 0.4001942 0.9164304 -1.24415e-6 0.5739523 0.8188887 0 0.7233734 0.6904571 -5.14318e-4 0.5597301 -0.828675 0 0.9307824 0.365574 -9.62159e-7 0.9833118 0.1819288 -9.81271e-7 0.9999716 -0.007537961 -9.56162e-7 0.9804519 -0.1967588 -8.22322e-7 0.9251165 -0.3796834 1.79364e-7 -0.5739526 -0.8188887 0 0.712557 -0.7016142 -3.71696e-7 0.5610044 -0.8278129 -3.73583e-7 0.3855859 -0.922672 0 0.1931501 -0.9811692 0 -0.9999728 0.007382452 0 -0.2088217 -0.9779538 3.73453e-7 -0.4001953 -0.91643 0 -0.5739527 -0.8188886 7.38623e-7 -0.7233732 -0.6904572 0 0.5610049 -0.8278125 0 -0.9307824 -0.3655737 0 -0.9833124 -0.1819249 0 -0.01036971 -0.9999463 1 2.08241e-6 0 -1 7.96422e-7 0 0 0.9999641 -0.008482635 0 0.009195744 0.9999577 0 -0.9999826 0.005912661 1 2.09266e-6 -3.42302e-7 -1 1.49271e-6 0 1.26342e-6 -0.8317303 0.5551801 9.00374e-7 -0.5726898 -0.8197723 0 0.5739509 0.8188897 0 -0.8441063 -0.536176 1 1.04082e-6 0 -1 -2.61552e-7 0 -1.79138e-7 -0.5621031 0.8270673 -2.30842e-7 0.8335413 -0.5524572 0 0.5750402 0.8181252 1 0 0 -1 0 0 0 0.8412698 0.5406156 1 -7.32373e-5 -4.73622e-5 -1 2.60158e-7 0 0 -0.5610046 0.8278128 0 -0.9942832 -0.1067758 -4.62173e-7 0.9971641 -0.07525914 1 0 5.68087e-6 1 1.24329e-6 0 0.9999999 -5.78825e-4 4.45298e-5 1 3.5527e-4 -1.80644e-4 -1 0 0 -1 6.21647e-7 0 -1 1.52139e-5 -5.44461e-6 0.4999998 0 0.8660256 -0.4999999 0 0.8660255 0.5 0 0.8660255 0.5 0 -0.8660254 0 -1 0 1.42608e-6 1 0 0 1 0 0 1 -6.77148e-7 9.04343e-7 1 0 0 1 0 0 1 0 0 1 0 0.4999998 0 -0.8660256 -0.5000001 0 0.8660253 1 0 4.52838e-7 -0.5000002 0 -0.8660253</float_array>
          <technique_common>
            <accessor source="#Cube-mesh-normals-array" count="407" stride="3">
              <param name="X" type="float"/>
              <param name="Y" type="float"/>
              <param name="Z" type="float"/>
            </accessor>
          </technique_common>
        </source>
        <source id="Cube-mesh-map-0">
          <float_array id="Cube-mesh-map-0-array" count="3168">0.625 0 0.375 0.25 0.375 0 0.625 0.25 0.375 0.5 0.375 0.25 0.625 0.5 0.375 0.75 0.375 0.5 0.625 0.75 0.375 1 0.375 0.75 0.166507 0.541507 0.166507 0.708493 0.166507 0.708493 0.875 0.5 0.625 0.75 0.625 0.5 0.333493 0.541507 0.125 0.5 0.375 0.5 0.333493 0.708493 0.125 0.75 0.166507 0.708493 0.333493 0.708493 0.375 0.5 0.375 0.75 0.166507 0.708493 0.125 0.5 0.166507 0.541507 0.333493 0.541507 0.166507 0.708493 0.166507 0.541507 0.166507 0.708493 0.333493 0.708493 0.333493 0.708493 0.333493 0.708493 0.333493 0.541507 0.333493 0.541507 0.333493 0.541507 0.166507 0.541507 0.166507 0.541507 1 0.5 0.96875 1 0.96875 0.5 0.96875 1 0.9375 0.5 0.96875 0.5 0.9375 1 0.90625 0.5 0.9375 0.5 0.90625 1 0.875 0.5 0.90625 0.5 0.875 1 0.84375 0.5 0.875 0.5 0.84375 1 0.8125 0.5 0.84375 0.5 0.8125 0.5 0.78125 1 0.78125 0.5 0.78125 0.5 0.75 1 0.75 0.5 0.75 0.5 0.71875 1 0.71875 0.5 0.71875 1 0.6875 0.5 0.71875 0.5 0.6875 0.5 0.65625 1 0.65625 0.5 0.65625 1 0.625 0.5 0.65625 0.5 0.625 1 0.59375 0.5 0.625 0.5 0.59375 1 0.5625 0.5 0.59375 0.5 0.5625 1 0.53125 0.5 0.5625 0.5 0.53125 0.5 0.5 1 0.5 0.5 0.5 1 0.46875 0.5 0.5 0.5 0.46875 1 0.4375 0.5 0.46875 0.5 0.4375 1 0.40625 0.5 0.4375 0.5 0.40625 1 0.375 0.5 0.40625 0.5 0.375 1 0.34375 0.5 0.375 0.5 0.34375 1 0.3125 0.5 0.34375 0.5 0.3125 1 0.28125 0.5 0.3125 0.5 0.28125 1 0.25 0.5 0.28125 0.5 0.25 1 0.21875 0.5 0.25 0.5 0.21875 1 0.1875 0.5 0.21875 0.5 0.1875 0.5 0.15625 1 0.15625 0.5 0.15625 1 0.125 0.5 0.15625 0.5 0.125 1 0.09375 0.5 0.125 0.5 0.09375 1 0.0625 0.5 0.09375 0.5 0.4197056 0.4197056 0.3833369 0.4495527 0.4197056 0.08029437 0.0625 0.5 0.03125 1 0.03125 0.5 0.03125 1 0 0.5 0.03125 0.5 0.6166634 0.4495529 0.6581563 0.4717312 0.616663 0.05044734 0.625 0 0.375 0.25 0.375 0 0.625 0.25 0.375 0.5 0.375 0.25 0.625 0.5 0.375 0.75 0.375 0.5 0.625 0.75 0.375 1 0.375 0.75 0.375 0.5 0.125 0.75 0.125 0.5 0.875 0.5 0.625 0.75 0.625 0.5 1 0.5 0.96875 1 0.96875 0.5 0.96875 1 0.9375 0.5 0.96875 0.5 0.9375 0.5 0.90625 1 0.90625 0.5 0.90625 1 0.875 0.5 0.90625 0.5 0.875 1 0.84375 0.5 0.875 0.5 0.84375 1 0.8125 0.5 0.84375 0.5 0.8125 1 0.78125 0.5 0.8125 0.5 0.78125 1 0.75 0.5 0.78125 0.5 0.75 1 0.71875 0.5 0.75 0.5 0.71875 1 0.6875 0.5 0.71875 0.5 0.6875 1 0.65625 0.5 0.6875 0.5 0.65625 1 0.625 0.5 0.65625 0.5 0.625 1 0.59375 0.5 0.625 0.5 0.59375 1 0.5625 0.5 0.59375 0.5 0.5625 1 0.53125 0.5 0.5625 0.5 0.53125 1 0.5 0.5 0.53125 0.5 0.5 0.5 0.46875 1 0.46875 0.5 0.46875 0.5 0.4375 1 0.4375 0.5 0.4375 1 0.40625 0.5 0.4375 0.5 0.40625 0.5 0.375 1 0.375 0.5 0.375 0.5 0.34375 1 0.34375 0.5 0.34375 0.5 0.3125 1 0.3125 0.5 0.3125 1 0.28125 0.5 0.3125 0.5 0.28125 0.5 0.25 1 0.25 0.5 0.25 0.5 0.21875 1 0.21875 0.5 0.21875 0.5 0.1875 1 0.1875 0.5 0.1875 0.5 0.15625 1 0.15625 0.5 0.15625 0.5 0.125 1 0.125 0.5 0.125 0.5 0.09375 1 0.09375 0.5 0.09375 0.5 0.0625 1 0.0625 0.5 0.0625 0.5 0.03125 1 0.03125 0.5 0.03125 0.5 0 1 0 0.5 0.790136 0.4517776 0.75 0.49 0.7968217 0.4853885 0.8287298 0.4400705 0.7968217 0.4853885 0.841844 0.4717311 0.864298 0.421059 0.841844 0.4717311 0.8833369 0.4495527 0.8954737 0.3954735 0.8833369 0.4495527 0.9197056 0.4197056 0.9210589 0.3642979 0.9197056 0.4197056 0.9495527 0.3833369 0.9400706 0.3287298 0.9495527 0.3833369 0.9717311 0.341844 0.9517779 0.2901362 0.9717311 0.341844 0.9853885 0.2968217 0.9557309 0.25 0.9853885 0.2968217 0.99 0.25 0.9557309 0.25 0.9853885 0.2031783 0.9517778 0.2098639 0.9517778 0.2098639 0.9717311 0.158156 0.9400707 0.1712703 0.9400707 0.1712703 0.9495527 0.1166631 0.921059 0.1357021 0.921059 0.1357021 0.9197056 0.08029437 0.8954739 0.1045264 0.8954739 0.1045264 0.8833369 0.05044728 0.8642978 0.07894098 0.8642978 0.07894098 0.841844 0.02826887 0.8287299 0.05992954 0.8287299 0.05992954 0.7968216 0.01461148 0.790136 0.04822218 0.790136 0.04822218 0.75 0.00999999 0.7499998 0.04426914 0.709864 0.0482223 0.75 0.00999999 0.7031782 0.01461154 0.6712701 0.05992954 0.7031782 0.01461154 0.6581559 0.02826893 0.635702 0.07894116 0.6581559 0.02826893 0.616663 0.05044734 0.6045261 0.1045265 0.616663 0.05044734 0.5802943 0.08029443 0.5789411 0.1357022 0.5802943 0.08029443 0.5504472 0.1166633 0.5599296 0.1712704 0.5504472 0.1166633 0.5282688 0.1581561 0.5482221 0.209864 0.5282688 0.1581561 0.5146115 0.2031785 0.5442691 0.2500002 0.5146115 0.2031785 0.51 0.2500002 0.5442691 0.2500002 0.5146116 0.2968219 0.5482223 0.2901363 0.5482223 0.2901363 0.5282691 0.3418443 0.5599298 0.3287299 0.5599298 0.3287299 0.5504475 0.3833371 0.5789413 0.3642981 0.5789413 0.3642981 0.5802946 0.4197058 0.6045267 0.3954739 0.6045267 0.3954739 0.6166634 0.4495529 0.6357023 0.421059 0.6357023 0.421059 0.6581563 0.4717312 0.6712706 0.4400706 0.6712706 0.4400706 0.7031787 0.4853885 0.7098643 0.4517779 0.7098643 0.4517779 0.75 0.49 0.7500001 0.4557308 0.2901362 0.4517778 0.25 0.49 0.2500001 0.4557309 0.3287299 0.4400706 0.2968217 0.4853885 0.2901362 0.4517778 0.3642978 0.4210588 0.341844 0.4717311 0.3287299 0.4400706 0.3954736 0.3954735 0.3833369 0.4495527 0.3642978 0.4210588 0.4210588 0.3642979 0.4197056 0.4197056 0.3954736 0.3954735 0.4400706 0.3287297 0.4495527 0.3833369 0.4210588 0.3642979 0.4517778 0.2901362 0.4717311 0.341844 0.4400706 0.3287297 0.4557308 0.2500001 0.4853885 0.2968217 0.4517778 0.2901362 0.4557308 0.2500001 0.4853885 0.2031783 0.49 0.25 0.4517777 0.209864 0.4717311 0.158156 0.4853885 0.2031783 0.4400706 0.1712703 0.4495527 0.1166631 0.4717311 0.158156 0.421059 0.1357021 0.4197056 0.08029437 0.4495527 0.1166631 0.3954737 0.1045264 0.3833369 0.05044728 0.4197056 0.08029437 0.3642979 0.07894104 0.341844 0.02826887 0.3833369 0.05044728 0.3287297 0.05992954 0.2968216 0.01461148 0.341844 0.02826887 0.290136 0.04822224 0.2499999 0.00999999 0.2968216 0.01461148 0.2098639 0.04822218 0.2499999 0.00999999 0.2499999 0.0442692 0.1712701 0.05992943 0.2031782 0.01461154 0.2098639 0.04822218 0.135702 0.07894116 0.1581559 0.02826893 0.1712701 0.05992943 0.1045262 0.1045265 0.116663 0.05044734 0.135702 0.07894116 0.07894098 0.1357023 0.08029425 0.08029443 0.1045262 0.1045265 0.05992937 0.1712703 0.05044716 0.1166633 0.07894098 0.1357023 0.04822206 0.2098641 0.02826881 0.1581561 0.05992937 0.1712703 0.04426908 0.2500002 0.01461148 0.2031785 0.04822206 0.2098641 0.04426908 0.2500002 0.01461154 0.2968219 0.00999999 0.2500002 0.04822224 0.2901362 0.02826899 0.3418443 0.01461154 0.2968219 0.0599296 0.3287299 0.05044746 0.3833371 0.02826899 0.3418443 0.07894128 0.3642981 0.08029454 0.4197058 0.05044746 0.3833371 0.1045265 0.3954738 0.1166634 0.4495529 0.08029454 0.4197058 0.1357023 0.421059 0.1581563 0.4717312 0.1166634 0.4495529 0.1712704 0.4400707 0.2031787 0.4853885 0.1581563 0.4717312 0.2098642 0.4517778 0.25 0.49 0.2031787 0.4853885 0.2500001 0.4557309 0.7098643 0.4517779 0.7500001 0.4557308 0.1712704 0.4400707 0.7098643 0.4517779 0.2098642 0.4517778 0.1357023 0.421059 0.6712706 0.4400706 0.1712704 0.4400707 0.6357023 0.421059 0.6045267 0.3954739 0.6045267 0.3954739 0.07894128 0.3642981 0.6045267 0.3954739 0.1045265 0.3954738 0.0599296 0.3287299 0.5789413 0.3642981 0.07894128 0.3642981 0.04822224 0.2901362 0.5599298 0.3287299 0.0599296 0.3287299 0.04426908 0.2500002 0.5482223 0.2901363 0.04822224 0.2901362 0.5442691 0.2500002 0.5482223 0.2901363 0.5482223 0.2901363 0.05992937 0.1712703 0.5482221 0.209864 0.04822206 0.2098641 0.07894098 0.1357023 0.5599296 0.1712704 0.05992937 0.1712703 0.1045262 0.1045265 0.5789411 0.1357022 0.07894098 0.1357023 0.135702 0.07894116 0.6045261 0.1045265 0.1045262 0.1045265 0.635702 0.07894116 0.6045261 0.1045265 0.6045261 0.1045265 0.1712701 0.05992943 0.709864 0.0482223 0.6712701 0.05992954 0.2499999 0.0442692 0.709864 0.0482223 0.2098639 0.04822218 0.2499999 0.0442692 0.790136 0.04822218 0.7499998 0.04426914 0.290136 0.04822224 0.8287299 0.05992954 0.790136 0.04822218 0.3287297 0.05992954 0.8642978 0.07894098 0.8287299 0.05992954 0.8287299 0.05992954 0.8642978 0.07894098 0.8287299 0.05992954 0.3954737 0.1045264 0.921059 0.1357021 0.8954739 0.1045264 0.421059 0.1357021 0.9400707 0.1712703 0.921059 0.1357021 0.4400706 0.1712703 0.9517778 0.2098639 0.9400707 0.1712703 0.4557308 0.2500001 0.9517778 0.2098639 0.4517777 0.209864 0.9517778 0.2098639 0.9557309 0.25 0.9517778 0.2098639 0.4517778 0.2901362 0.9400706 0.3287298 0.9517779 0.2901362 0.4400706 0.3287297 0.9210589 0.3642979 0.9400706 0.3287298 0.4210588 0.3642979 0.8954737 0.3954735 0.9210589 0.3642979 0.3954736 0.3954735 0.864298 0.421059 0.8954737 0.3954735 0.3287299 0.4400706 0.2901362 0.4517778 0.2901362 0.4517778 0.2901362 0.4517778 0.8287298 0.4400705 0.3287299 0.4400706 0.2901362 0.4517778 0.7500001 0.4557308 0.790136 0.4517776 0.4517778 0.2901362 0.9557309 0.25 0.4557308 0.2500001 0.9517779 0.2901362 0.9557309 0.25 0.9517779 0.2901362 0.4517778 0.2901362 0.4557308 0.2500001 0.4557308 0.2500001 0.4400706 0.3287297 0.4517778 0.2901362 0.4400706 0.3287297 0.04426908 0.2500002 0.5482221 0.209864 0.5442691 0.2500002 0.05992937 0.1712703 0.04822206 0.2098641 0.05992937 0.1712703 0.5482221 0.209864 0.5442691 0.2500002 0.5482221 0.209864 0.04822206 0.2098641 0.04426908 0.2500002 0.04426908 0.2500002 0.1045265 0.3954738 0.6357023 0.421059 0.1357023 0.421059 0.1357023 0.421059 0.1045265 0.3954738 0.1357023 0.421059 0.07894128 0.3642981 0.1045265 0.3954738 0.07894128 0.3642981 0.6712706 0.4400706 0.6357023 0.421059 0.6712706 0.4400706 0.3287299 0.4400706 0.864298 0.421059 0.3642978 0.4210588 0.8287298 0.4400705 0.864298 0.421059 0.8287298 0.4400705 0.3287299 0.4400706 0.3642978 0.4210588 0.3642978 0.4210588 0.864298 0.421059 0.8954737 0.3954735 0.8954737 0.3954735 0.3642979 0.07894104 0.8954739 0.1045264 0.8642978 0.07894098 0.3954737 0.1045264 0.421059 0.1357021 0.421059 0.1357021 0.8642978 0.07894098 0.8954739 0.1045264 0.8954739 0.1045264 0.3642979 0.07894104 0.3954737 0.1045264 0.3642979 0.07894104 0.1712701 0.05992943 0.635702 0.07894116 0.135702 0.07894116 0.6712701 0.05992954 0.635702 0.07894116 0.6712701 0.05992954 0.1712701 0.05992943 0.135702 0.07894116 0.135702 0.07894116 0.1712701 0.05992943 0.2098639 0.04822218 0.2098639 0.04822218 0.1045265 0.3954738 0.3287299 0.4400706 0.2901362 0.4517778 0.8642978 0.07894098 0.635702 0.07894116 0.6712701 0.05992954 0 0 0 0 0 0 0 0 0 0 0 0 1 1 0.8333333 0.5 1 0.5 0.8333333 1 0.6666666 0.5 0.8333333 0.5 0.6666666 1 0.5 0.5 0.6666666 0.5 0.5 1 0.3333333 0.5 0.5 0.5 0.09791713 0.1621949 0.09791713 0.337805 0.09791713 0.337805 0.3333333 1 0.1666666 0.5 0.3333333 0.5 0.1666666 1 0 0.5 0.1666666 0.5 0.75 0.00999999 0.5421539 0.13 0.5421539 0.37 0.4020828 0.337805 0.25 0.49 0.25 0.4256102 0.4020828 0.337805 0.4578461 0.1299999 0.4578461 0.37 0.25 0.07438981 0.4578461 0.1299999 0.4020829 0.1621949 0.25 0.07438981 0.04215389 0.13 0.25 0.00999999 0.09791713 0.1621949 0.04215389 0.37 0.04215389 0.13 0.25 0.4256102 0.04215389 0.37 0.09791713 0.337805 0.25 0.4256102 0.09791713 0.1621949 0.4020829 0.1621949 0.4020829 0.1621949 0.25 0.07438981 0.25 0.07438981 0.25 0.4256102 0.4020828 0.337805 0.4020828 0.337805 0.09791713 0.337805 0.25 0.4256102 0.25 0.4256102 0.25 0.07438981 0.09791713 0.1621949 0.09791713 0.1621949 0.4020828 0.337805 0.4020829 0.1621949 0.4020829 0.1621949 0.625 0 0.625 0.25 0.375 0.25 0.625 0.25 0.625 0.5 0.375 0.5 0.625 0.5 0.625 0.75 0.375 0.75 0.625 0.75 0.625 1 0.375 1 0.166507 0.541507 0.166507 0.541507 0.166507 0.708493 0.875 0.5 0.875 0.75 0.625 0.75 0.333493 0.541507 0.166507 0.541507 0.125 0.5 0.333493 0.708493 0.375 0.75 0.125 0.75 0.333493 0.708493 0.333493 0.541507 0.375 0.5 0.166507 0.708493 0.125 0.75 0.125 0.5 0.333493 0.541507 0.333493 0.708493 0.166507 0.708493 0.166507 0.708493 0.166507 0.708493 0.333493 0.708493 0.333493 0.708493 0.333493 0.708493 0.333493 0.541507 0.333493 0.541507 0.333493 0.541507 0.166507 0.541507 1 0.5 1 1 0.96875 1 0.96875 1 0.9375 1 0.9375 0.5 0.9375 1 0.90625 1 0.90625 0.5 0.90625 1 0.875 1 0.875 0.5 0.875 1 0.84375 1 0.84375 0.5 0.84375 1 0.8125 1 0.8125 0.5 0.8125 0.5 0.8125 1 0.78125 1 0.78125 0.5 0.78125 1 0.75 1 0.75 0.5 0.75 1 0.71875 1 0.71875 1 0.6875 1 0.6875 0.5 0.6875 0.5 0.6875 1 0.65625 1 0.65625 1 0.625 1 0.625 0.5 0.625 1 0.59375 1 0.59375 0.5 0.59375 1 0.5625 1 0.5625 0.5 0.5625 1 0.53125 1 0.53125 0.5 0.53125 0.5 0.53125 1 0.5 1 0.5 1 0.46875 1 0.46875 0.5 0.46875 1 0.4375 1 0.4375 0.5 0.4375 1 0.40625 1 0.40625 0.5 0.40625 1 0.375 1 0.375 0.5 0.375 1 0.34375 1 0.34375 0.5 0.34375 1 0.3125 1 0.3125 0.5 0.3125 1 0.28125 1 0.28125 0.5 0.28125 1 0.25 1 0.25 0.5 0.25 1 0.21875 1 0.21875 0.5 0.21875 1 0.1875 1 0.1875 0.5 0.1875 0.5 0.1875 1 0.15625 1 0.15625 1 0.125 1 0.125 0.5 0.125 1 0.09375 1 0.09375 0.5 0.09375 1 0.0625 1 0.0625 0.5 0.341844 0.4717311 0.2968217 0.4853885 0.2968216 0.01461148 0.2968217 0.4853885 0.25 0.49 0.2499999 0.00999999 0.25 0.49 0.2031787 0.4853885 0.2031782 0.01461154 0.2031787 0.4853885 0.1581563 0.4717312 0.1581559 0.02826893 0.1581563 0.4717312 0.1166634 0.4495529 0.1581559 0.02826893 0.1166634 0.4495529 0.08029454 0.4197058 0.116663 0.05044734 0.1581559 0.02826893 0.1166634 0.4495529 0.116663 0.05044734 0.08029454 0.4197058 0.05044746 0.3833371 0.08029425 0.08029443 0.05044746 0.3833371 0.02826899 0.3418443 0.05044716 0.1166633 0.08029425 0.08029443 0.05044746 0.3833371 0.05044716 0.1166633 0.02826899 0.3418443 0.01461154 0.2968219 0.01461148 0.2031785 0.01461154 0.2968219 0.00999999 0.2500002 0.01461148 0.2031785 0.01461148 0.2031785 0.02826881 0.1581561 0.02826899 0.3418443 0.02826881 0.1581561 0.05044716 0.1166633 0.02826899 0.3418443 0.08029425 0.08029443 0.116663 0.05044734 0.08029454 0.4197058 0.1581559 0.02826893 0.2031782 0.01461154 0.2031787 0.4853885 0.2031782 0.01461154 0.2499999 0.00999999 0.25 0.49 0.2499999 0.00999999 0.2968216 0.01461148 0.2968217 0.4853885 0.2968216 0.01461148 0.341844 0.02826887 0.341844 0.4717311 0.341844 0.02826887 0.3833369 0.05044728 0.341844 0.4717311 0.3833369 0.05044728 0.4197056 0.08029437 0.3833369 0.4495527 0.341844 0.4717311 0.3833369 0.05044728 0.3833369 0.4495527 0.4197056 0.08029437 0.4495527 0.1166631 0.4197056 0.4197056 0.4495527 0.1166631 0.4717311 0.158156 0.4495527 0.3833369 0.4197056 0.4197056 0.4495527 0.1166631 0.4495527 0.3833369 0.4717311 0.158156 0.4853885 0.2031783 0.4717311 0.341844 0.4853885 0.2031783 0.49 0.25 0.4853885 0.2968217 0.4717311 0.341844 0.4853885 0.2031783 0.4853885 0.2968217 0.4717311 0.341844 0.4495527 0.3833369 0.4717311 0.158156 0.0625 0.5 0.0625 1 0.03125 1 0.03125 1 0 1 0 0.5 0.7031787 0.4853885 0.75 0.49 0.75 0.00999999 0.75 0.49 0.7968217 0.4853885 0.7968216 0.01461148 0.7968217 0.4853885 0.841844 0.4717311 0.7968216 0.01461148 0.841844 0.4717311 0.8833369 0.4495527 0.841844 0.02826887 0.7968216 0.01461148 0.841844 0.4717311 0.841844 0.02826887 0.8833369 0.4495527 0.9197056 0.4197056 0.9197056 0.08029437 0.9197056 0.4197056 0.9495527 0.3833369 0.9495527 0.1166631 0.9495527 0.3833369 0.9717311 0.341844 0.9495527 0.1166631 0.9717311 0.341844 0.9853885 0.2968217 0.9717311 0.158156 0.9495527 0.1166631 0.9717311 0.341844 0.9717311 0.158156 0.9853885 0.2968217 0.99 0.25 0.9853885 0.2031783 0.9853885 0.2031783 0.9717311 0.158156 0.9853885 0.2968217 0.9495527 0.1166631 0.9197056 0.08029437 0.9197056 0.4197056 0.9197056 0.08029437 0.8833369 0.05044728 0.8833369 0.4495527 0.8833369 0.05044728 0.841844 0.02826887 0.8833369 0.4495527 0.7968216 0.01461148 0.75 0.00999999 0.75 0.49 0.75 0.00999999 0.7031782 0.01461154 0.7031787 0.4853885 0.7031782 0.01461154 0.6581559 0.02826893 0.7031787 0.4853885 0.6581559 0.02826893 0.616663 0.05044734 0.6581563 0.4717312 0.7031787 0.4853885 0.6581559 0.02826893 0.6581563 0.4717312 0.616663 0.05044734 0.5802943 0.08029443 0.5802946 0.4197058 0.5802943 0.08029443 0.5504472 0.1166633 0.5504475 0.3833371 0.5504472 0.1166633 0.5282688 0.1581561 0.5504475 0.3833371 0.5282688 0.1581561 0.5146115 0.2031785 0.5282691 0.3418443 0.5504475 0.3833371 0.5282688 0.1581561 0.5282691 0.3418443 0.5146115 0.2031785 0.51 0.2500002 0.5146116 0.2968219 0.5146116 0.2968219 0.5282691 0.3418443 0.5146115 0.2031785 0.5504475 0.3833371 0.5802946 0.4197058 0.5802943 0.08029443 0.5802946 0.4197058 0.6166634 0.4495529 0.616663 0.05044734 0.625 0 0.625 0.25 0.375 0.25 0.625 0.25 0.625 0.5 0.375 0.5 0.625 0.5 0.625 0.75 0.375 0.75 0.625 0.75 0.625 1 0.375 1 0.375 0.5 0.375 0.75 0.125 0.75 0.875 0.5 0.875 0.75 0.625 0.75 1 0.5 1 1 0.96875 1 0.96875 1 0.9375 1 0.9375 0.5 0.9375 0.5 0.9375 1 0.90625 1 0.90625 1 0.875 1 0.875 0.5 0.875 1 0.84375 1 0.84375 0.5 0.84375 1 0.8125 1 0.8125 0.5 0.8125 1 0.78125 1 0.78125 0.5 0.78125 1 0.75 1 0.75 0.5 0.75 1 0.71875 1 0.71875 0.5 0.71875 1 0.6875 1 0.6875 0.5 0.6875 1 0.65625 1 0.65625 0.5 0.65625 1 0.625 1 0.625 0.5 0.625 1 0.59375 1 0.59375 0.5 0.59375 1 0.5625 1 0.5625 0.5 0.5625 1 0.53125 1 0.53125 0.5 0.53125 1 0.5 1 0.5 0.5 0.5 0.5 0.5 1 0.46875 1 0.46875 0.5 0.46875 1 0.4375 1 0.4375 1 0.40625 1 0.40625 0.5 0.40625 0.5 0.40625 1 0.375 1 0.375 0.5 0.375 1 0.34375 1 0.34375 0.5 0.34375 1 0.3125 1 0.3125 1 0.28125 1 0.28125 0.5 0.28125 0.5 0.28125 1 0.25 1 0.25 0.5 0.25 1 0.21875 1 0.21875 0.5 0.21875 1 0.1875 1 0.1875 0.5 0.1875 1 0.15625 1 0.15625 0.5 0.15625 1 0.125 1 0.125 0.5 0.125 1 0.09375 1 0.09375 0.5 0.09375 1 0.0625 1 0.0625 0.5 0.0625 1 0.03125 1 0.03125 0.5 0.03125 1 0 1 0.790136 0.4517776 0.7500001 0.4557308 0.75 0.49 0.8287298 0.4400705 0.790136 0.4517776 0.7968217 0.4853885 0.864298 0.421059 0.8287298 0.4400705 0.841844 0.4717311 0.8954737 0.3954735 0.864298 0.421059 0.8833369 0.4495527 0.9210589 0.3642979 0.8954737 0.3954735 0.9197056 0.4197056 0.9400706 0.3287298 0.9210589 0.3642979 0.9495527 0.3833369 0.9517779 0.2901362 0.9400706 0.3287298 0.9717311 0.341844 0.9557309 0.25 0.9517779 0.2901362 0.9853885 0.2968217 0.9557309 0.25 0.99 0.25 0.9853885 0.2031783 0.9517778 0.2098639 0.9853885 0.2031783 0.9717311 0.158156 0.9400707 0.1712703 0.9717311 0.158156 0.9495527 0.1166631 0.921059 0.1357021 0.9495527 0.1166631 0.9197056 0.08029437 0.8954739 0.1045264 0.9197056 0.08029437 0.8833369 0.05044728 0.8642978 0.07894098 0.8833369 0.05044728 0.841844 0.02826887 0.8287299 0.05992954 0.841844 0.02826887 0.7968216 0.01461148 0.790136 0.04822218 0.7968216 0.01461148 0.75 0.00999999 0.709864 0.0482223 0.7499998 0.04426914 0.75 0.00999999 0.6712701 0.05992954 0.709864 0.0482223 0.7031782 0.01461154 0.635702 0.07894116 0.6712701 0.05992954 0.6581559 0.02826893 0.6045261 0.1045265 0.635702 0.07894116 0.616663 0.05044734 0.5789411 0.1357022 0.6045261 0.1045265 0.5802943 0.08029443 0.5599296 0.1712704 0.5789411 0.1357022 0.5504472 0.1166633 0.5482221 0.209864 0.5599296 0.1712704 0.5282688 0.1581561 0.5442691 0.2500002 0.5482221 0.209864 0.5146115 0.2031785 0.5442691 0.2500002 0.51 0.2500002 0.5146116 0.2968219 0.5482223 0.2901363 0.5146116 0.2968219 0.5282691 0.3418443 0.5599298 0.3287299 0.5282691 0.3418443 0.5504475 0.3833371 0.5789413 0.3642981 0.5504475 0.3833371 0.5802946 0.4197058 0.6045267 0.3954739 0.5802946 0.4197058 0.6166634 0.4495529 0.6357023 0.421059 0.6166634 0.4495529 0.6581563 0.4717312 0.6712706 0.4400706 0.6581563 0.4717312 0.7031787 0.4853885 0.7098643 0.4517779 0.7031787 0.4853885 0.75 0.49 0.2901362 0.4517778 0.2968217 0.4853885 0.25 0.49 0.3287299 0.4400706 0.341844 0.4717311 0.2968217 0.4853885 0.3642978 0.4210588 0.3833369 0.4495527 0.341844 0.4717311 0.3954736 0.3954735 0.4197056 0.4197056 0.3833369 0.4495527 0.4210588 0.3642979 0.4495527 0.3833369 0.4197056 0.4197056 0.4400706 0.3287297 0.4717311 0.341844 0.4495527 0.3833369 0.4517778 0.2901362 0.4853885 0.2968217 0.4717311 0.341844 0.4557308 0.2500001 0.49 0.25 0.4853885 0.2968217 0.4557308 0.2500001 0.4517777 0.209864 0.4853885 0.2031783 0.4517777 0.209864 0.4400706 0.1712703 0.4717311 0.158156 0.4400706 0.1712703 0.421059 0.1357021 0.4495527 0.1166631 0.421059 0.1357021 0.3954737 0.1045264 0.4197056 0.08029437 0.3954737 0.1045264 0.3642979 0.07894104 0.3833369 0.05044728 0.3642979 0.07894104 0.3287297 0.05992954 0.341844 0.02826887 0.3287297 0.05992954 0.290136 0.04822224 0.2968216 0.01461148 0.290136 0.04822224 0.2499999 0.0442692 0.2499999 0.00999999 0.2098639 0.04822218 0.2031782 0.01461154 0.2499999 0.00999999 0.1712701 0.05992943 0.1581559 0.02826893 0.2031782 0.01461154 0.135702 0.07894116 0.116663 0.05044734 0.1581559 0.02826893 0.1045262 0.1045265 0.08029425 0.08029443 0.116663 0.05044734 0.07894098 0.1357023 0.05044716 0.1166633 0.08029425 0.08029443 0.05992937 0.1712703 0.02826881 0.1581561 0.05044716 0.1166633 0.04822206 0.2098641 0.01461148 0.2031785 0.02826881 0.1581561 0.04426908 0.2500002 0.00999999 0.2500002 0.01461148 0.2031785 0.04426908 0.2500002 0.04822224 0.2901362 0.01461154 0.2968219 0.04822224 0.2901362 0.0599296 0.3287299 0.02826899 0.3418443 0.0599296 0.3287299 0.07894128 0.3642981 0.05044746 0.3833371 0.07894128 0.3642981 0.1045265 0.3954738 0.08029454 0.4197058 0.1045265 0.3954738 0.1357023 0.421059 0.1166634 0.4495529 0.1357023 0.421059 0.1712704 0.4400707 0.1581563 0.4717312 0.1712704 0.4400707 0.2098642 0.4517778 0.2031787 0.4853885 0.2098642 0.4517778 0.2500001 0.4557309 0.25 0.49 0.2500001 0.4557309 0.2098642 0.4517778 0.7098643 0.4517779 0.1712704 0.4400707 0.6712706 0.4400706 0.7098643 0.4517779 0.1357023 0.421059 0.6357023 0.421059 0.6712706 0.4400706 0.6357023 0.421059 0.6357023 0.421059 0.6045267 0.3954739 0.07894128 0.3642981 0.5789413 0.3642981 0.6045267 0.3954739 0.0599296 0.3287299 0.5599298 0.3287299 0.5789413 0.3642981 0.04822224 0.2901362 0.5482223 0.2901363 0.5599298 0.3287299 0.04426908 0.2500002 0.5442691 0.2500002 0.5482223 0.2901363 0.5442691 0.2500002 0.5442691 0.2500002 0.5482223 0.2901363 0.05992937 0.1712703 0.5599296 0.1712704 0.5482221 0.209864 0.07894098 0.1357023 0.5789411 0.1357022 0.5599296 0.1712704 0.1045262 0.1045265 0.6045261 0.1045265 0.5789411 0.1357022 0.135702 0.07894116 0.635702 0.07894116 0.6045261 0.1045265 0.635702 0.07894116 0.635702 0.07894116 0.6045261 0.1045265 0.1712701 0.05992943 0.2098639 0.04822218 0.709864 0.0482223 0.2499999 0.0442692 0.7499998 0.04426914 0.709864 0.0482223 0.2499999 0.0442692 0.290136 0.04822224 0.790136 0.04822218 0.290136 0.04822224 0.3287297 0.05992954 0.8287299 0.05992954 0.3287297 0.05992954 0.3642979 0.07894104 0.8642978 0.07894098 0.8287299 0.05992954 0.8642978 0.07894098 0.8642978 0.07894098 0.3954737 0.1045264 0.421059 0.1357021 0.921059 0.1357021 0.421059 0.1357021 0.4400706 0.1712703 0.9400707 0.1712703 0.4400706 0.1712703 0.4517777 0.209864 0.9517778 0.2098639 0.4557308 0.2500001 0.9557309 0.25 0.9517778 0.2098639 0.9517778 0.2098639 0.9557309 0.25 0.9557309 0.25 0.4517778 0.2901362 0.4400706 0.3287297 0.9400706 0.3287298 0.4400706 0.3287297 0.4210588 0.3642979 0.9210589 0.3642979 0.4210588 0.3642979 0.3954736 0.3954735 0.8954737 0.3954735 0.3954736 0.3954735 0.3642978 0.4210588 0.864298 0.421059 0.3287299 0.4400706 0.3287299 0.4400706 0.2901362 0.4517778 0.2901362 0.4517778 0.790136 0.4517776 0.8287298 0.4400705 0.2901362 0.4517778 0.2500001 0.4557309 0.7500001 0.4557308 0.4517778 0.2901362 0.9517779 0.2901362 0.9557309 0.25 0.9517779 0.2901362 0.9557309 0.25 0.9557309 0.25 0.4517778 0.2901362 0.4517778 0.2901362 0.4557308 0.2500001 0.4400706 0.3287297 0.4517778 0.2901362 0.4517778 0.2901362 0.04426908 0.2500002 0.04822206 0.2098641 0.5482221 0.209864 0.05992937 0.1712703 0.04822206 0.2098641 0.04822206 0.2098641 0.5482221 0.209864 0.5442691 0.2500002 0.5442691 0.2500002 0.04822206 0.2098641 0.04822206 0.2098641 0.04426908 0.2500002 0.1045265 0.3954738 0.6045267 0.3954739 0.6357023 0.421059 0.1357023 0.421059 0.1045265 0.3954738 0.1045265 0.3954738 0.07894128 0.3642981 0.1045265 0.3954738 0.1045265 0.3954738 0.6712706 0.4400706 0.6357023 0.421059 0.6357023 0.421059 0.3287299 0.4400706 0.8287298 0.4400705 0.864298 0.421059 0.8287298 0.4400705 0.864298 0.421059 0.864298 0.421059 0.3287299 0.4400706 0.3287299 0.4400706 0.3642978 0.4210588 0.864298 0.421059 0.864298 0.421059 0.8954737 0.3954735 0.3642979 0.07894104 0.3954737 0.1045264 0.8954739 0.1045264 0.3954737 0.1045264 0.3954737 0.1045264 0.421059 0.1357021 0.8642978 0.07894098 0.8642978 0.07894098 0.8954739 0.1045264 0.3642979 0.07894104 0.3954737 0.1045264 0.3954737 0.1045264 0.1712701 0.05992943 0.6712701 0.05992954 0.635702 0.07894116 0.6712701 0.05992954 0.635702 0.07894116 0.635702 0.07894116 0.1712701 0.05992943 0.1712701 0.05992943 0.135702 0.07894116 0.1712701 0.05992943 0.1712701 0.05992943 0.2098639 0.04822218 0.1045265 0.3954738 0.1357023 0.421059 0.3287299 0.4400706 0.8642978 0.07894098 0.8287299 0.05992954 0.635702 0.07894116 0 0 0 0 0 0 0 0 0 0 0 0 0 0 0 0 0 0 0 0 0 0 0 0 0 0 0 0 0 0 0 0 0 0 0 0 0 0 0 0 0 0 0 0 0 0 0 0 0 0 0 0 0 0 0 0 0 0 0 0 1 1 0.8333333 1 0.8333333 0.5 0.8333333 1 0.6666666 1 0.6666666 0.5 0.6666666 1 0.5 1 0.5 0.5 0.5 1 0.3333333 1 0.3333333 0.5 0.09791713 0.1621949 0.09791713 0.1621949 0.09791713 0.337805 0.3333333 1 0.1666666 1 0.1666666 0.5 0.1666666 1 0 1 0 0.5 0.5421539 0.37 0.75 0.49 0.9578461 0.37 0.9578461 0.37 0.9578461 0.1299999 0.5421539 0.37 0.9578461 0.1299999 0.75 0.00999999 0.5421539 0.37 0.4020828 0.337805 0.4578461 0.37 0.25 0.49 0.4020828 0.337805 0.4020829 0.1621949 0.4578461 0.1299999 0.25 0.07438981 0.25 0.00999999 0.4578461 0.1299999 0.25 0.07438981 0.09791713 0.1621949 0.04215389 0.13 0.09791713 0.1621949 0.09791713 0.337805 0.04215389 0.37 0.25 0.4256102 0.25 0.49 0.04215389 0.37 0.4020829 0.1621949 0.4020828 0.337805 0.25 0.4256102 0.25 0.4256102 0.09791713 0.337805 0.09791713 0.1621949 0.09791713 0.1621949 0.25 0.07438981 0.4020829 0.1621949 0.4020829 0.1621949 0.4020829 0.1621949 0.25 0.07438981 0.25 0.4256102 0.25 0.4256102 0.4020828 0.337805 0.09791713 0.337805 0.09791713 0.337805 0.25 0.4256102 0.25 0.07438981 0.25 0.07438981 0.09791713 0.1621949 0.4020828 0.337805 0.4020828 0.337805 0.4020829 0.1621949</float_array>
          <technique_common>
            <accessor source="#Cube-mesh-map-0-array" count="1584" stride="2">
              <param name="S" type="float"/>
              <param name="T" type="float"/>
            </accessor>
          </technique_common>
        </source>
        <vertices id="Cube-mesh-vertices">
          <input semantic="POSITION" source="#Cube-mesh-positions"/>
        </vertices>
        <triangles material="Material-material" count="528">
          <input semantic="VERTEX" source="#Cube-mesh-vertices" offset="0"/>
          <input semantic="NORMAL" source="#Cube-mesh-normals" offset="1"/>
          <input semantic="TEXCOORD" source="#Cube-mesh-map-0" offset="2" set="0"/>
          <p>4 0 0 10 0 1 8 0 2 10 1 3 7 1 4 11 1 5 6 2 6 5 2 7 7 2 8 9 3 9 7 3 10 5 3 11 1 4 12 15 4 13 3 4 14 4 5 15 9 5 16 5 5 17 0 6 18 9 6 19 8 6 20 2 7 21 11 7 22 3 7 23 2 8 24 8 8 25 10 8 26 3 6 27 9 6 28 1 6 29 12 9 30 15 9 31 13 9 32 3 10 33 14 10 34 2 10 35 2 11 36 12 11 37 0 11 38 0 12 39 13 12 40 1 12 41 16 13 42 19 13 43 18 13 44 19 14 45 20 14 46 18 14 47 21 15 48 22 15 49 20 15 50 23 16 51 24 16 52 22 16 53 25 17 54 26 17 55 24 17 56 27 18 57 28 18 58 26 18 59 28 19 60 31 19 61 30 19 62 30 20 63 33 20 64 32 20 65 32 21 66 35 21 67 34 21 68 35 22 69 36 22 70 34 22 71 36 23 72 39 23 73 38 23 74 39 24 75 40 24 76 38 24 77 41 25 78 42 25 79 40 25 80 43 26 81 44 26 82 42 26 83 45 27 84 46 27 85 44 27 86 46 28 87 49 28 88 48 28 89 49 29 90 50 29 91 48 29 92 51 30 93 52 30 94 50 30 95 53 31 96 54 31 97 52 31 98 55 32 99 56 32 100 54 32 101 57 33 102 58 33 103 56 33 104 59 34 105 60 34 106 58 34 107 61 35 108 62 35 109 60 35 110 63 36 111 64 36 112 62 36 113 65 37 114 66 37 115 64 37 116 67 38 117 68 38 118 66 38 119 68 39 120 71 39 121 70 39 122 71 40 123 72 40 124 70 40 125 73 41 126 74 41 127 72 41 128 75 42 129 76 42 130 74 42 131 25 1 132 23 1 133 41 1 134 76 43 135 79 43 136 78 43 137 79 44 138 16 44 139 78 44 140 74 45 141 76 45 142 54 45 143 81 46 144 82 46 145 80 46 146 83 45 147 86 45 148 82 45 149 87 47 150 84 47 151 86 47 152 85 48 153 80 48 154 84 48 155 86 49 156 80 49 157 82 49 158 83 50 159 85 50 160 87 50 161 152 51 162 184 51 163 153 51 164 184 52 165 154 52 166 153 52 167 154 53 168 187 53 169 155 53 170 187 54 171 156 54 172 155 54 173 188 55 174 157 55 175 156 55 176 189 56 177 158 56 178 157 56 179 190 57 180 159 57 181 158 57 182 191 58 183 160 58 184 159 58 185 192 59 186 161 59 187 160 59 188 193 60 189 162 60 190 161 60 191 194 61 192 163 61 193 162 61 194 195 62 195 164 62 196 163 62 197 196 63 198 165 63 199 164 63 200 197 64 201 166 64 202 165 64 203 198 65 204 167 65 205 166 65 206 199 66 207 168 66 208 167 66 209 168 67 210 201 67 211 169 67 212 169 68 213 202 68 214 170 68 215 202 69 216 171 69 217 170 69 218 171 70 219 204 70 220 172 70 221 172 71 222 205 71 223 173 71 224 173 72 225 206 72 226 174 72 227 206 73 228 175 73 229 174 73 230 175 74 231 208 74 232 176 74 233 176 75 234 209 75 235 177 75 236 177 76 237 210 76 238 178 76 239 178 77 240 211 77 241 179 77 242 179 78 243 212 78 244 180 78 245 180 79 246 213 79 247 181 79 248 181 80 249 214 80 250 182 80 251 182 81 252 215 81 253 183 81 254 183 82 255 185 82 256 152 82 257 90 45 258 152 45 259 153 45 260 92 45 261 153 45 262 154 45 263 94 45 264 154 45 265 155 45 266 96 45 267 155 45 268 156 45 269 98 83 270 156 83 271 157 83 272 100 45 273 157 45 274 158 45 275 102 84 276 158 84 277 159 84 278 104 85 279 159 85 280 160 85 281 104 45 282 161 45 283 106 45 284 106 86 285 162 86 286 108 86 287 108 45 288 163 45 289 110 45 290 110 45 291 164 45 292 112 45 293 112 45 294 165 45 295 114 45 296 114 87 297 166 87 298 116 87 299 116 88 300 167 88 301 118 88 302 118 89 303 168 89 304 120 89 305 122 45 306 168 45 307 169 45 308 124 45 309 169 45 310 170 45 311 126 90 312 170 90 313 171 90 314 128 45 315 171 45 316 172 45 317 130 45 318 172 45 319 173 45 320 132 91 321 173 91 322 174 91 323 134 92 324 174 92 325 175 92 326 136 93 327 175 93 328 176 93 329 136 45 330 177 45 331 138 45 332 138 45 333 178 45 334 140 45 335 140 94 336 179 94 337 142 94 338 142 45 339 180 45 340 144 45 341 144 45 342 181 45 343 146 45 344 146 45 345 182 45 346 148 45 347 148 95 348 183 95 349 150 95 350 150 96 351 152 96 352 88 96 353 91 97 354 185 97 355 89 97 356 93 98 357 184 98 358 91 98 359 95 1 360 186 1 361 93 1 362 97 1 363 187 1 364 95 1 365 99 1 366 188 1 367 97 1 368 101 1 369 189 1 370 99 1 371 103 1 372 190 1 373 101 1 374 105 1 375 191 1 376 103 1 377 105 99 378 193 99 379 192 99 380 107 100 381 194 100 382 193 100 383 109 101 384 195 101 385 194 101 386 111 1 387 196 1 388 195 1 389 113 1 390 197 1 391 196 1 392 115 102 393 198 102 394 197 102 395 117 1 396 199 1 397 198 1 398 119 1 399 200 1 400 199 1 401 123 103 402 200 103 403 121 103 404 125 104 405 201 104 406 123 104 407 127 105 408 202 105 409 125 105 410 129 1 411 203 1 412 127 1 413 131 1 414 204 1 415 129 1 416 133 106 417 205 106 418 131 106 419 135 1 420 206 1 421 133 1 422 137 1 423 207 1 424 135 1 425 137 107 426 209 107 427 208 107 428 139 1 429 210 1 430 209 1 431 141 107 432 211 107 433 210 107 434 143 1 435 212 1 436 211 1 437 145 1 438 213 1 439 212 1 440 147 1 441 214 1 442 213 1 443 149 1 444 215 1 445 214 1 446 151 1 447 185 1 448 215 1 449 88 108 450 151 108 451 150 108 452 151 109 453 148 109 454 150 109 455 149 110 456 146 110 457 148 110 458 146 111 459 221 111 460 144 111 461 145 112 462 142 112 463 144 112 464 143 113 465 140 113 466 142 113 467 141 114 468 138 114 469 140 114 470 139 115 471 136 115 472 138 115 473 137 116 474 221 116 475 136 116 476 135 117 477 132 117 478 134 117 479 133 118 480 130 118 481 132 118 482 131 119 483 128 119 484 130 119 485 129 120 486 126 120 487 128 120 488 127 121 489 220 121 490 126 121 491 124 122 492 123 122 493 122 122 494 123 123 495 120 123 496 122 123 497 120 124 498 119 124 499 118 124 500 118 125 501 117 125 502 116 125 503 116 126 504 115 126 505 114 126 506 114 127 507 229 127 508 228 127 509 112 128 510 111 128 511 110 128 512 110 129 513 109 129 514 108 129 515 108 130 516 107 130 517 106 130 518 107 131 519 104 131 520 106 131 521 104 132 522 218 132 523 217 132 524 102 133 525 101 133 526 100 133 527 100 134 528 99 134 529 98 134 530 98 135 531 97 135 532 96 135 533 96 136 534 95 136 535 94 136 536 92 137 537 227 137 538 93 137 539 93 68 540 90 68 541 92 68 542 90 138 543 89 138 544 88 138 545 218 139 546 216 139 547 217 139 548 102 140 549 217 140 550 216 140 551 103 1 552 218 1 553 105 1 554 103 141 555 216 141 556 219 141 557 221 142 558 223 142 559 220 142 560 135 143 561 220 143 562 223 143 563 134 144 564 221 144 565 220 144 566 135 145 567 222 145 568 137 145 569 225 146 570 221 146 571 224 146 572 147 147 573 222 147 574 225 147 575 145 148 576 221 148 577 222 148 578 146 149 579 225 149 580 224 149 581 219 150 582 226 150 583 216 150 584 92 151 585 216 151 586 226 151 587 93 1 588 219 1 589 95 1 590 95 152 591 216 152 592 94 152 593 228 153 594 218 153 595 217 153 596 112 154 597 218 154 598 113 154 599 114 155 600 217 155 601 112 155 602 115 156 603 218 156 604 229 156 605 223 157 606 230 157 607 220 157 608 124 158 609 220 158 610 230 158 611 125 159 612 223 159 613 127 159 614 124 160 615 231 160 616 125 160 617 225 161 618 226 161 619 227 161 620 229 162 621 230 162 622 231 162 623 226 163 624 228 163 625 220 163 626 227 164 627 223 164 628 229 164 629 245 165 630 234 165 631 232 165 632 244 166 633 236 166 634 234 166 635 246 167 636 238 167 637 236 167 638 247 168 639 240 168 640 238 168 641 241 169 642 255 169 643 243 169 644 248 170 645 242 170 646 240 170 647 249 171 648 232 171 649 242 171 650 238 172 651 240 172 652 242 172 653 235 173 654 245 173 655 233 173 656 235 174 657 246 174 658 244 174 659 239 175 660 246 175 661 237 175 662 239 176 663 248 176 664 247 176 665 241 177 666 249 177 667 248 177 668 233 177 669 249 177 670 243 177 671 251 178 672 254 178 673 252 178 674 237 179 675 253 179 676 239 179 677 233 1 678 250 1 679 235 1 680 243 180 681 251 180 682 233 180 683 239 181 684 254 181 685 241 181 686 235 182 687 252 182 688 237 182 689 4 183 690 6 183 691 10 183 692 10 184 693 6 184 694 7 184 695 6 185 696 4 185 697 5 185 698 9 186 699 11 186 700 7 186 701 1 187 702 13 187 703 15 187 704 4 188 705 8 188 706 9 188 707 0 189 708 1 189 709 9 189 710 2 6 711 10 6 712 11 6 713 2 6 714 0 6 715 8 6 716 3 190 717 11 190 718 9 190 719 12 6 720 14 6 721 15 6 722 3 45 723 15 45 724 14 45 725 2 191 726 14 191 727 12 191 728 0 1 729 12 1 730 13 1 731 16 192 732 17 192 733 19 192 734 19 193 735 21 193 736 20 193 737 21 194 738 23 194 739 22 194 740 23 195 741 25 195 742 24 195 743 25 196 744 27 196 745 26 196 746 27 197 747 29 197 748 28 197 749 28 198 750 29 198 751 31 198 752 30 199 753 31 199 754 33 199 755 32 200 756 33 200 757 35 200 758 35 201 759 37 201 760 36 201 761 36 202 762 37 202 763 39 202 764 39 203 765 41 203 766 40 203 767 41 204 768 43 204 769 42 204 770 43 205 771 45 205 772 44 205 773 45 206 774 47 206 775 46 206 776 46 207 777 47 207 778 49 207 779 49 208 780 51 208 781 50 208 782 51 209 783 53 209 784 52 209 785 53 210 786 55 210 787 54 210 788 55 211 789 57 211 790 56 211 791 57 212 792 59 212 793 58 212 794 59 213 795 61 213 796 60 213 797 61 214 798 63 214 799 62 214 800 63 215 801 65 215 802 64 215 803 65 216 804 67 216 805 66 216 806 67 217 807 69 217 808 68 217 809 68 218 810 69 218 811 71 218 812 71 219 813 73 219 814 72 219 815 73 220 816 75 220 817 74 220 818 75 221 819 77 221 820 76 221 821 21 222 822 19 222 823 47 222 824 19 223 825 17 223 826 49 223 827 17 224 828 79 224 829 51 224 830 79 225 831 77 225 832 53 225 833 77 226 834 75 226 835 53 226 836 75 1 837 73 1 838 55 1 839 53 227 840 75 227 841 55 227 842 73 228 843 71 228 844 57 228 845 71 229 846 69 229 847 59 229 848 57 230 849 71 230 850 59 230 851 69 231 852 67 231 853 63 231 854 67 232 855 65 232 856 63 232 857 63 233 858 61 233 859 69 233 860 61 234 861 59 234 862 69 234 863 57 1 864 55 1 865 73 1 866 53 235 867 51 235 868 79 235 869 51 236 870 49 236 871 17 236 872 49 237 873 47 237 874 19 237 875 47 238 876 45 238 877 21 238 878 45 1 879 43 1 880 21 1 881 43 1 882 41 1 883 23 1 884 21 239 885 43 239 886 23 239 887 41 1 888 39 1 889 25 1 890 39 1 891 37 1 892 27 1 893 25 1 894 39 1 895 27 1 896 37 240 897 35 240 898 29 240 899 35 241 900 33 241 901 31 241 902 29 242 903 35 242 904 31 242 905 29 243 906 27 243 907 37 243 908 76 244 909 77 244 910 79 244 911 79 245 912 17 245 913 16 245 914 78 246 915 16 246 916 48 246 917 16 247 918 18 247 919 46 247 920 18 45 921 20 45 922 46 45 923 20 45 924 22 45 925 44 45 926 46 248 927 20 248 928 44 248 929 22 45 930 24 45 931 40 45 932 24 249 933 26 249 934 38 249 935 26 250 936 28 250 937 38 250 938 28 45 939 30 45 940 36 45 941 38 251 942 28 251 943 36 251 944 30 45 945 32 45 946 34 45 947 34 45 948 36 45 949 30 45 950 38 252 951 40 252 952 24 252 953 40 253 954 42 253 955 22 253 956 42 45 957 44 45 958 22 45 959 46 254 960 48 254 961 16 254 962 48 255 963 50 255 964 78 255 965 50 256 966 52 256 967 78 256 968 52 45 969 54 45 970 76 45 971 78 257 972 52 257 973 76 257 974 54 258 975 56 258 976 72 258 977 56 259 978 58 259 979 70 259 980 58 45 981 60 45 982 70 45 983 60 260 984 62 260 985 68 260 986 70 261 987 60 261 988 68 261 989 62 45 990 64 45 991 66 45 992 66 45 993 68 45 994 62 45 995 70 262 996 72 262 997 56 262 998 72 263 999 74 263 1000 54 263 1001 81 185 1002 83 185 1003 82 185 1004 83 264 1005 87 264 1006 86 264 1007 87 265 1008 85 265 1009 84 265 1010 85 266 1011 81 266 1012 80 266 1013 86 267 1014 84 267 1015 80 267 1016 83 268 1017 81 268 1018 85 268 1019 152 269 1020 185 269 1021 184 269 1022 184 270 1023 186 270 1024 154 270 1025 154 271 1026 186 271 1027 187 271 1028 187 272 1029 188 272 1030 156 272 1031 188 273 1032 189 273 1033 157 273 1034 189 274 1035 190 274 1036 158 274 1037 190 275 1038 191 275 1039 159 275 1040 191 58 1041 192 58 1042 160 58 1043 192 276 1044 193 276 1045 161 276 1046 193 277 1047 194 277 1048 162 277 1049 194 278 1050 195 278 1051 163 278 1052 195 279 1053 196 279 1054 164 279 1055 196 280 1056 197 280 1057 165 280 1058 197 281 1059 198 281 1060 166 281 1061 198 282 1062 199 282 1063 167 282 1064 199 283 1065 200 283 1066 168 283 1067 168 284 1068 200 284 1069 201 284 1070 169 285 1071 201 285 1072 202 285 1073 202 286 1074 203 286 1075 171 286 1076 171 287 1077 203 287 1078 204 287 1079 172 288 1080 204 288 1081 205 288 1082 173 289 1083 205 289 1084 206 289 1085 206 290 1086 207 290 1087 175 290 1088 175 291 1089 207 291 1090 208 291 1091 176 292 1092 208 292 1093 209 292 1094 177 293 1095 209 293 1096 210 293 1097 178 294 1098 210 294 1099 211 294 1100 179 295 1101 211 295 1102 212 295 1103 180 296 1104 212 296 1105 213 296 1106 181 297 1107 213 297 1108 214 297 1109 182 298 1110 214 298 1111 215 298 1112 183 299 1113 215 299 1114 185 299 1115 90 300 1116 88 300 1117 152 300 1118 92 45 1119 90 45 1120 153 45 1121 94 45 1122 92 45 1123 154 45 1124 96 45 1125 94 45 1126 155 45 1127 98 301 1128 96 301 1129 156 301 1130 100 45 1131 98 45 1132 157 45 1133 102 45 1134 100 45 1135 158 45 1136 104 45 1137 102 45 1138 159 45 1139 104 45 1140 160 45 1141 161 45 1142 106 302 1143 161 302 1144 162 302 1145 108 303 1146 162 303 1147 163 303 1148 110 45 1149 163 45 1150 164 45 1151 112 304 1152 164 304 1153 165 304 1154 114 45 1155 165 45 1156 166 45 1157 116 45 1158 166 45 1159 167 45 1160 118 305 1161 167 305 1162 168 305 1163 122 306 1164 120 306 1165 168 306 1166 124 307 1167 122 307 1168 169 307 1169 126 45 1170 124 45 1171 170 45 1172 128 45 1173 126 45 1174 171 45 1175 130 45 1176 128 45 1177 172 45 1178 132 308 1179 130 308 1180 173 308 1181 134 45 1182 132 45 1183 174 45 1184 136 45 1185 134 45 1186 175 45 1187 136 45 1188 176 45 1189 177 45 1190 138 45 1191 177 45 1192 178 45 1193 140 309 1194 178 309 1195 179 309 1196 142 45 1197 179 45 1198 180 45 1199 144 45 1200 180 45 1201 181 45 1202 146 45 1203 181 45 1204 182 45 1205 148 310 1206 182 310 1207 183 310 1208 150 45 1209 183 45 1210 152 45 1211 91 1 1212 184 1 1213 185 1 1214 93 311 1215 186 311 1216 184 311 1217 95 1 1218 187 1 1219 186 1 1220 97 312 1221 188 312 1222 187 312 1223 99 1 1224 189 1 1225 188 1 1226 101 1 1227 190 1 1228 189 1 1229 103 313 1230 191 313 1231 190 313 1232 105 314 1233 192 314 1234 191 314 1235 105 315 1236 107 315 1237 193 315 1238 107 316 1239 109 316 1240 194 316 1241 109 317 1242 111 317 1243 195 317 1244 111 1 1245 113 1 1246 196 1 1247 113 318 1248 115 318 1249 197 318 1250 115 318 1251 117 318 1252 198 318 1253 117 319 1254 119 319 1255 199 319 1256 119 320 1257 121 320 1258 200 320 1259 123 1 1260 201 1 1261 200 1 1262 125 1 1263 202 1 1264 201 1 1265 127 1 1266 203 1 1267 202 1 1268 129 1 1269 204 1 1270 203 1 1271 131 1 1272 205 1 1273 204 1 1274 133 321 1275 206 321 1276 205 321 1277 135 322 1278 207 322 1279 206 322 1280 137 323 1281 208 323 1282 207 323 1283 137 1 1284 139 1 1285 209 1 1286 139 324 1287 141 324 1288 210 324 1289 141 1 1290 143 1 1291 211 1 1292 143 1 1293 145 1 1294 212 1 1295 145 1 1296 147 1 1297 213 1 1298 147 1 1299 149 1 1300 214 1 1301 149 325 1302 151 325 1303 215 325 1304 151 326 1305 89 326 1306 185 326 1307 88 327 1308 89 327 1309 151 327 1310 151 328 1311 149 328 1312 148 328 1313 149 329 1314 147 329 1315 146 329 1316 146 330 1317 224 330 1318 221 330 1319 145 331 1320 143 331 1321 142 331 1322 143 332 1323 141 332 1324 140 332 1325 141 333 1326 139 333 1327 138 333 1328 139 334 1329 137 334 1330 136 334 1331 137 335 1332 222 335 1333 221 335 1334 135 336 1335 133 336 1336 132 336 1337 133 337 1338 131 337 1339 130 337 1340 131 338 1341 129 338 1342 128 338 1343 129 339 1344 127 339 1345 126 339 1346 127 340 1347 223 340 1348 220 340 1349 124 341 1350 125 341 1351 123 341 1352 123 342 1353 121 342 1354 120 342 1355 120 343 1356 121 343 1357 119 343 1358 118 344 1359 119 344 1360 117 344 1361 116 345 1362 117 345 1363 115 345 1364 114 346 1365 115 346 1366 229 346 1367 112 347 1368 113 347 1369 111 347 1370 110 348 1371 111 348 1372 109 348 1373 108 349 1374 109 349 1375 107 349 1376 107 350 1377 105 350 1378 104 350 1379 104 351 1380 105 351 1381 218 351 1382 102 352 1383 103 352 1384 101 352 1385 100 353 1386 101 353 1387 99 353 1388 98 354 1389 99 354 1390 97 354 1391 96 355 1392 97 355 1393 95 355 1394 92 356 1395 226 356 1396 227 356 1397 93 357 1398 91 357 1399 90 357 1400 90 358 1401 91 358 1402 89 358 1403 218 359 1404 219 359 1405 216 359 1406 102 360 1407 104 360 1408 217 360 1409 103 361 1410 219 361 1411 218 361 1412 103 362 1413 102 362 1414 216 362 1415 221 363 1416 222 363 1417 223 363 1418 135 364 1419 134 364 1420 220 364 1421 134 365 1422 136 365 1423 221 365 1424 135 366 1425 223 366 1426 222 366 1427 225 367 1428 222 367 1429 221 367 1430 147 1 1431 145 1 1432 222 1 1433 145 368 1434 144 368 1435 221 368 1436 146 369 1437 147 369 1438 225 369 1439 219 370 1440 227 370 1441 226 370 1442 92 371 1443 94 371 1444 216 371 1445 93 372 1446 227 372 1447 219 372 1448 95 373 1449 219 373 1450 216 373 1451 228 374 1452 229 374 1453 218 374 1454 112 375 1455 217 375 1456 218 375 1457 114 376 1458 228 376 1459 217 376 1460 115 377 1461 113 377 1462 218 377 1463 223 378 1464 231 378 1465 230 378 1466 124 379 1467 126 379 1468 220 379 1469 125 380 1470 231 380 1471 223 380 1472 124 381 1473 230 381 1474 231 381 1475 225 382 1476 224 382 1477 226 382 1478 229 383 1479 228 383 1480 230 383 1481 224 384 1482 226 384 1483 221 384 1484 226 385 1485 216 385 1486 228 385 1487 216 45 1488 217 45 1489 228 45 1490 228 386 1491 230 386 1492 220 386 1493 220 387 1494 221 387 1495 226 387 1496 231 1 1497 229 1 1498 223 1 1499 229 388 1500 218 388 1501 219 388 1502 227 389 1503 229 389 1504 219 389 1505 227 390 1506 225 390 1507 222 390 1508 222 1 1509 223 1 1510 227 1 1511 245 165 1512 244 165 1513 234 165 1514 244 391 1515 246 391 1516 236 391 1517 246 392 1518 247 392 1519 238 392 1520 247 168 1521 248 168 1522 240 168 1523 241 393 1524 254 393 1525 255 393 1526 248 170 1527 249 170 1528 242 170 1529 249 394 1530 245 394 1531 232 394 1532 242 395 1533 232 395 1534 234 395 1535 234 172 1536 236 172 1537 242 172 1538 236 172 1539 238 172 1540 242 172 1541 235 396 1542 244 396 1543 245 396 1544 235 397 1545 237 397 1546 246 397 1547 239 177 1548 247 177 1549 246 177 1550 239 398 1551 241 398 1552 248 398 1553 241 177 1554 243 177 1555 249 177 1556 233 399 1557 245 399 1558 249 399 1559 252 400 1560 250 400 1561 251 400 1562 251 401 1563 255 401 1564 254 401 1565 254 402 1566 253 402 1567 252 402 1568 237 403 1569 252 403 1570 253 403 1571 233 1 1572 251 1 1573 250 1 1574 243 404 1575 255 404 1576 251 404 1577 239 405 1578 253 405 1579 254 405 1580 235 406 1581 250 406 1582 252 406 1583</p>
        </triangles>
      </mesh>
    </geometry>
  </library_geometries>
  <library_visual_scenes>
    <visual_scene id="Scene" name="Scene">
      <node id="SteamEngine" name="SteamEngine" type="NODE">
        <matrix sid="transform">1 0 0 0 0 1 0 0 0 0 1 0 0 0 0 1</matrix>
        <instance_geometry url="#Cube-mesh" name="SteamEngine">
          <bind_material>
            <technique_common>
              <instance_material symbol="Material-material" target="#Material-material">
                <bind_vertex_input semantic="UVMap" input_semantic="TEXCOORD" input_set="0"/>
              </instance_material>
            </technique_common>
          </bind_material>
        </instance_geometry>
      </node>
    </visual_scene>
  </library_visual_scenes>
  <scene>
    <instance_visual_scene url="#Scene"/>
  </scene>
</COLLADA>